Taille du fichier (octets), Vitesse (secondes), Taux de compression 
351, 0.0029530120000060833, 1.4245014245014245
353, 0.0023799420000045757, 1.3994334277620397
359, 0.00228274299999498, 1.4289693593314763
424, 0.002484033000001773, 1.3089622641509433
496, 0.002469062000017175, 1.1774193548387097
505, 0.0025145670000199516, 1.1702970297029702
512, 0.0024656660000061947, 1.138671875
516, 0.002403989000015372, 1.12015503875969
526, 0.0025482929999895987, 1.123574144486692
527, 0.002595371000012392, 1.1442125237191652
538, 0.0024885839999910786, 1.104089219330855
551, 0.002754928000001655, 1.1306715063520871
563, 0.0026705399999968904, 1.1065719360568385
580, 0.0028356969999947523, 1.1172413793103448
583, 0.0027098989999956302, 1.097770154373928
587, 0.0026409370000237686, 1.0681431005110733
598, 0.0030431210000188003, 1.0719063545150502
602, 0.0027127900000039062, 1.0664451827242525
611, 0.002660125999994989, 1.0490998363338788
612, 0.0027781949999905464, 1.0588235294117647
617, 0.0026382050000108848, 1.0372771474878444
622, 0.0038762869999970917, 1.062700964630225
628, 0.002650818999995863, 1.0111464968152866
636, 0.003001326000003246, 1.0738993710691824
645, 0.0027843560000064826, 1.0294573643410854
645, 0.002835870000012619, 1.048062015503876
648, 0.002929338999990705, 1.0432098765432098
652, 0.002845554000003858, 1.0352760736196318
656, 0.002986633999995547, 1.0625
660, 0.0029599320000102125, 1.0712121212121213
662, 0.0032739899999967292, 1.0891238670694865
680, 0.002821062999998958, 0.9926470588235294
684, 0.0032353830000033668, 1.0467836257309941
685, 0.0028704439999955866, 1.0072992700729928
687, 0.003128537000009146, 1.0334788937409025
691, 0.00298460400000522, 1.0274963820549927
692, 0.0032502309999813406, 1.0057803468208093
699, 0.0028982679999955963, 0.9814020028612304
707, 0.0028839550000157033, 0.9745403111739745
715, 0.002977200000003677, 0.9944055944055944
734, 0.003014696999997568, 0.9945504087193461
779, 0.003176117999998951, 0.9653401797175867
789, 0.0030155709999917235, 0.9480354879594424
794, 0.0031213249999950676, 0.9445843828715366
796, 0.0031473630000107278, 0.9522613065326633
803, 0.0035927180000214776, 0.9763387297633873
806, 0.0030515660000105527, 0.9280397022332506
820, 0.0033854339999948024, 0.9792682926829268
821, 0.0033594200000095498, 0.9792935444579781
824, 0.0032417359999783457, 0.9478155339805825
831, 0.0031066880000025776, 0.924187725631769
836, 0.0032987069999990126, 0.9712918660287081
849, 0.0033812199999943005, 0.9517078916372202
854, 0.0031644990000074813, 0.905152224824356
859, 0.0033215519999885146, 0.9278230500582072
860, 0.0031428179999863914, 0.9034883720930232
876, 0.003377036000017597, 0.9029680365296804
894, 0.003300104000004467, 0.9138702460850112
903, 0.0033702740000194353, 0.9125138427464009
930, 0.0035410989999888898, 0.9204301075268817
931, 0.0034877779999931136, 0.9129967776584318
943, 0.003536160999999538, 0.9045599151643691
953, 0.0033977430000220465, 0.8929695697796433
976, 0.003743043000014268, 0.9170081967213115
981, 0.0034195500000180346, 0.8746177370030581
984, 0.003599079999986543, 0.8810975609756098
1008, 0.0035909209999829272, 0.8670634920634921
1008, 0.0037900320000119336, 0.8869047619047619
1010, 0.0035579080000047725, 0.8762376237623762
1016, 0.0037780880000184425, 0.8986220472440944
1019, 0.003689651000001959, 0.8812561334641805
1026, 0.003641113999975687, 0.8703703703703703
1026, 0.0036524550000081035, 0.8499025341130604
1028, 0.0036074100000007547, 0.8667315175097277
1039, 0.00377727599999389, 0.875842155919153
1041, 0.0035186990000113383, 0.8587896253602305
1041, 0.003795577999994748, 0.8837656099903939
1061, 0.003704226999985849, 0.8652214891611687
1083, 0.0036615199999801007, 0.840258541089566
1090, 0.0037331269999754113, 0.8522935779816514
1093, 0.003938992000001917, 0.8819762122598354
1123, 0.003846841000012091, 0.8468388245770259
1148, 0.003819260000000213, 0.8275261324041812
1169, 0.004049441999995906, 0.8374679213002566
1189, 0.004117433999994091, 0.8536585365853658
1196, 0.0040731059999927766, 0.8419732441471572
1197, 0.003944998999998006, 0.8270676691729323
1197, 0.003968439000004764, 0.8262322472848789
1197, 0.00424979999999664, 0.873015873015873
1213, 0.004116873000015175, 0.8219291014014839
1214, 0.0038975870000115265, 0.8212520593080724
1216, 0.0040546719999952074, 0.8379934210526315
1220, 0.0040110890000164545, 0.8237704918032787
1228, 0.004328600999997434, 0.8460912052117264
1232, 0.0043867979999845375, 0.8409090909090909
1244, 0.004024246000000176, 0.8078778135048231
1255, 0.004280504999996992, 0.8430278884462151
1259, 0.004107138000023269, 0.8093725178713265
1268, 0.004300901000021895, 0.8391167192429022
1295, 0.0044646870000235594, 0.8216216216216217
1296, 0.004401655000009441, 0.8317901234567902
1310, 0.004158555999993041, 0.7969465648854962
1336, 0.004261667999998053, 0.8001497005988024
1341, 0.004348152999995136, 0.8150633855331841
1343, 0.004378715000001421, 0.8212956068503351
1381, 0.004280110999985709, 0.7856625633598842
1384, 0.004594548000000032, 0.8200867052023122
1425, 0.0045666700000026594, 0.8042105263157895
1435, 0.00482511100000238, 0.8334494773519163
1450, 0.004887402000008478, 0.8227586206896552
1457, 0.0044529969999871355, 0.7762525737817433
1473, 0.004577605000008589, 0.781398506449423
1491, 0.004487494000017023, 0.7639168343393695
1492, 0.0047494510000092305, 0.8022788203753352
1510, 0.004849839000002021, 0.8026490066225166
1522, 0.004904316000022391, 0.7851511169513797
1531, 0.005203417000018362, 0.7968647942521228
1533, 0.00455877599998189, 0.7606001304631441
1537, 0.00467069499998729, 0.7514638906961614
1539, 0.004656435999976338, 0.7634827810266407
1540, 0.0050833220000185975, 0.8155844155844156
1554, 0.004663350000015498, 0.7522522522522522
1554, 0.00471186099997567, 0.7728442728442728
1557, 0.00466315399998507, 0.7623635195889531
1560, 0.00474855900000648, 0.7737179487179487
1577, 0.004791079000000309, 0.755865567533291
1578, 0.0048626800000022286, 0.7737642585551331
1600, 0.004746267999991005, 0.763125
1607, 0.00500980399999662, 0.7797137523335408
1610, 0.004752446999987114, 0.7559006211180124
1615, 0.004917005000010022, 0.7715170278637771
1627, 0.004828096000011328, 0.759680393362016
1632, 0.004678761999997505, 0.7395833333333334
1639, 0.004816193999999996, 0.7522879804759
1642, 0.004995979000000261, 0.7704019488428745
1649, 0.004851169999994909, 0.750758035172832
1658, 0.004977547999999388, 0.7599517490952955
1676, 0.004923742999977776, 0.7571599045346062
1685, 0.004871287999975493, 0.7353115727002968
1686, 0.005516838999994889, 0.7894424673784104
1704, 0.005000232000014648, 0.7447183098591549
1717, 0.006051288999998405, 0.7815958066394875
1731, 0.005224915000013652, 0.7677642980935875
1734, 0.005096438000009584, 0.7675893886966552
1734, 0.005377680999998802, 0.7831603229527105
1742, 0.005310697999988179, 0.769804822043628
1744, 0.005158411999985901, 0.7488532110091743
1754, 0.005174253000006956, 0.7611174458380844
1778, 0.005830926000015779, 0.7705286839145107
1784, 0.0054285880000009, 0.7707399103139013
1791, 0.005155717000008053, 0.7414852037967616
1793, 0.005471351000011282, 0.7691020635805912
1802, 0.0052966430000083164, 0.7513873473917869
1819, 0.005071874999998727, 0.720175920835624
1822, 0.0055194649999918965, 0.7650933040614709
1823, 0.005246881999994457, 0.7443773998902907
1827, 0.005248405000003231, 0.7465790914066777
1832, 0.005625899999984085, 0.7762008733624454
1833, 0.005319060999994463, 0.7441352973267867
1839, 0.005248566999995319, 0.7471451876019576
1849, 0.0057338960000095085, 0.7652785289345592
1853, 0.005294058999993467, 0.7388019427954668
1855, 0.005363078999977233, 0.7326145552560647
1862, 0.006033619000021417, 0.8012889366272825
1865, 0.005387409999997317, 0.7436997319034853
1870, 0.00548226699999077, 0.7513368983957219
1872, 0.005605408000008083, 0.7601495726495726
1875, 0.005098223999993934, 0.7178666666666667
1877, 0.005496371999981875, 0.7362812999467235
1880, 0.005428709999989678, 0.7388297872340426
1900, 0.00575457699997628, 0.7626315789473684
1901, 0.0055450080000127855, 0.7522356654392425
1904, 0.005316017000012607, 0.7247899159663865
1911, 0.005710107999988168, 0.7676609105180534
1912, 0.0056317309999940335, 0.7437238493723849
1915, 0.005729235000018207, 0.7498694516971279
1919, 0.005516354999997475, 0.7467430953621678
1920, 0.005569002000015644, 0.7453125
1922, 0.005646944999995185, 0.7497398543184183
1923, 0.005111080000006041, 0.7067082683307332
1923, 0.005552481999984593, 0.733749349973999
1925, 0.0056325209999954495, 0.7423376623376623
1926, 0.0067068609999978435, 0.7336448598130841
1937, 0.005541468999979315, 0.7356737222509034
1939, 0.006095892000018921, 0.7282104177411036
1940, 0.005772831999991013, 0.75
1944, 0.0057249749999925825, 0.7448559670781894
1946, 0.005985453000022289, 0.7487153134635149
1950, 0.005327037000000701, 0.7117948717948718
1954, 0.005773298999997678, 0.755885363357216
1961, 0.005590368999975226, 0.7307496175420704
1963, 0.006763204999998607, 0.7697401935812532
1964, 0.005791939000005186, 0.7464358452138493
1965, 0.005836399000003212, 0.7516539440203562
1968, 0.005754077999995388, 0.7571138211382114
1982, 0.005903082000003224, 0.7416750756811302
1984, 0.005686874999980773, 0.7368951612903226
1988, 0.005736850999994658, 0.7344064386317908
1991, 0.006985254999989365, 0.7513812154696132
1993, 0.005739929000014854, 0.7405920722528851
2000, 0.005738237000002755, 0.7345
2005, 0.005577879000014718, 0.7266832917705736
2012, 0.0058276649999982055, 0.7385685884691849
2014, 0.005674256999981253, 0.7313803376365442
2014, 0.00584987600001341, 0.7418073485600795
2019, 0.00604334199999812, 0.7696879643387816
2028, 0.005492794999980788, 0.7120315581854043
2030, 0.00549619500000631, 0.7068965517241379
2031, 0.006051324999987173, 0.7548005908419497
2035, 0.00536486400000058, 0.7041769041769042
2041, 0.006178805000018883, 0.766780989710926
2043, 0.005733794999997599, 0.7234459128732257
2043, 0.006191668000013806, 0.7723935389133627
2044, 0.005876299000021845, 0.7363013698630136
2048, 0.005686189000016384, 0.72265625
2050, 0.0055685330000017075, 0.7107317073170731
2055, 0.006420887999979641, 0.7498783454987834
2056, 0.0057482679999907305, 0.7227626459143969
2060, 0.005995186999996349, 0.7378640776699029
2071, 0.0056530720000012025, 0.7131820376629647
2071, 0.00610462299999881, 0.7687107677450506
2081, 0.005637793000005331, 0.7227294569918309
2087, 0.005959010999987413, 0.7484427407762339
2088, 0.0060417130000018915, 0.7466475095785441
2094, 0.005823762999995097, 0.7263610315186246
2098, 0.005894309000012754, 0.7402287893231649
2099, 0.00598983500000827, 0.7317770366841353
2101, 0.0057449890000214054, 0.7163255592574964
2107, 0.006099366000000828, 0.7579496915045087
2107, 0.006427494000007528, 0.7095396298054105
2110, 0.006000236999994968, 0.7360189573459716
2110, 0.006083496999991667, 0.7516587677725118
2110, 0.006213130999981331, 0.7445497630331753
2112, 0.005795605999992404, 0.7130681818181818
2112, 0.00621524700000009, 0.7623106060606061
2123, 0.006137748000014653, 0.7555346208195949
2124, 0.005998346000012589, 0.7396421845574388
2127, 0.006045881000005693, 0.7442407146215326
2132, 0.0058288719999950445, 0.7204502814258912
2142, 0.006883544000004349, 0.753968253968254
2144, 0.006246954000005189, 0.7481343283582089
2145, 0.006758359999992081, 0.7268065268065268
2147, 0.005717385999986391, 0.7079646017699115
2147, 0.006098412999989478, 0.7345132743362832
2150, 0.0061843080000016926, 0.7516279069767442
2150, 0.0062414189999913106, 0.7567441860465116
2151, 0.005942591999996694, 0.7354718735471873
2162, 0.0061148739999907775, 0.7465309898242368
2173, 0.006111589999989064, 0.723423838011965
2174, 0.00636800899999912, 0.7534498620055198
2176, 0.005870454000017844, 0.7003676470588235
2187, 0.006038744999983692, 0.7274805669867398
2188, 0.006628489000007676, 0.7641681901279708
2189, 0.006388189999995575, 0.7505710370031978
2196, 0.006598365999991529, 0.7586520947176685
2199, 0.005882640999999467, 0.7053206002728513
2204, 0.006200371000005589, 0.7286751361161524
2205, 0.006037914000017963, 0.7047619047619048
2212, 0.006023623000004363, 0.7233273056057866
2215, 0.006193135999978949, 0.7223476297968398
2223, 0.006127400999986321, 0.7125506072874493
2232, 0.006156786000019565, 0.717741935483871
2237, 0.0061001389999830735, 0.7036209208761735
2241, 0.006756475000003093, 0.7161981258366801
2249, 0.006245684999981904, 0.7203201422854602
2252, 0.0064946210000016436, 0.7291296625222025
2254, 0.006289699999996401, 0.7369121561668146
2255, 0.006215537000002769, 0.706430155210643
2256, 0.007072502999989183, 0.7424645390070922
2266, 0.006136980999997377, 0.7105030891438658
2271, 0.006257771999997885, 0.7283135182738881
2271, 0.006447073000003911, 0.7217084984588287
2281, 0.0063458409999839205, 0.7220517316966243
2286, 0.006130763999976807, 0.7060367454068242
2287, 0.006218831000012415, 0.7087888062964582
2287, 0.006371909999984382, 0.7227809357236554
2289, 0.00638678699999673, 0.72870249017038
2303, 0.006487887999981012, 0.734259661311333
2309, 0.006458965000007311, 0.7267215244694673
2310, 0.006187216000000717, 0.6995670995670996
2310, 0.0064748249999979635, 0.7246753246753247
2310, 0.006545216000006349, 0.7406926406926407
2312, 0.006213486999996576, 0.7123702422145328
2316, 0.0067116190000149345, 0.7357512953367875
2317, 0.006928520000002436, 0.7678031937850669
2320, 0.006388755000017454, 0.7103448275862069
2324, 0.006352180999982693, 0.71815834767642
2331, 0.006167943000008336, 0.6911196911196911
2331, 0.006430906999980834, 0.7245817245817245
2335, 0.006161659000014197, 0.69593147751606
2341, 0.006310471000006146, 0.7052541648868005
2341, 0.006570516000010684, 0.7296027338744127
2344, 0.006517105000000356, 0.7158703071672355
2348, 0.006569743000000017, 0.7278534923339012
2348, 0.006811198999997714, 0.7470187393526405
2349, 0.006800077000008287, 0.7262664963814389
2358, 0.00661396199998876, 0.7256149279050043
2362, 0.006599974000010889, 0.7358171041490262
2362, 0.006699894999997014, 0.7209991532599492
2366, 0.006462988000009773, 0.7104818258664413
2366, 0.0066150020000179666, 0.7299239222316145
2369, 0.006385733000001892, 0.6977627691008864
2372, 0.006457547999985991, 0.7112141652613828
2375, 0.006610381000001553, 0.7141052631578947
2377, 0.006165406999997458, 0.6899453092132941
2378, 0.006489431999995077, 0.712363330529857
2382, 0.006271636999997554, 0.6973131821998321
2385, 0.00629515100001754, 0.6922431865828093
2387, 0.0064308139999980085, 0.6962714704650188
2387, 0.00658403699998189, 0.7121910347716799
2389, 0.006521633000005522, 0.6990372540812055
2391, 0.007595451000014464, 0.7252195734002509
2392, 0.006715859999985696, 0.7320234113712375
2393, 0.006379701000014393, 0.7028834099456749
2395, 0.006219173000005185, 0.6981210855949895
2402, 0.006463228000001209, 0.7144046627810158
2403, 0.006187667999995483, 0.6924677486475239
2405, 0.006415795999998863, 0.6989604989604989
2406, 0.007096883999992087, 0.7281795511221946
2407, 0.006453555000007327, 0.7041960947237225
2408, 0.006896318000002566, 0.739202657807309
2410, 0.006475604000002022, 0.7066390041493776
2415, 0.006443828000016083, 0.6956521739130435
2415, 0.006769056999985423, 0.7246376811594203
2416, 0.006614942999988216, 0.7077814569536424
2417, 0.006799676000014188, 0.7302441042614811
2418, 0.007223151000005146, 0.7208436724565757
2420, 0.007132685000016181, 0.7318181818181818
2422, 0.006724821999995356, 0.7208918249380677
2429, 0.0069665179999844895, 0.7443392342527789
2430, 0.006077024999996183, 0.6773662551440329
2433, 0.006475416999990102, 0.7011919441019318
2436, 0.006201308000015615, 0.6839080459770115
2438, 0.006565590000008115, 0.7054963084495488
2438, 0.0069069619999879706, 0.7337981952420016
2442, 0.006374565999976767, 0.6961506961506961
2449, 0.006857289999999239, 0.7341772151898734
2452, 0.006603004999988116, 0.6949429037520392
2453, 0.006642639999995481, 0.7207501019160212
2453, 0.0069749140000112675, 0.7309417040358744
2454, 0.0069381180000220866, 0.747758761206194
2456, 0.00670586900000103, 0.7153908794788274
2457, 0.0066032900000152495, 0.7032967032967034
2458, 0.006806984999997212, 0.7282343368592351
2458, 0.007119167000013249, 0.6965012205044752
2459, 0.006402704000009862, 0.6970313135420902
2459, 0.0064154320000113785, 0.6925579503863359
2467, 0.006454717999986315, 0.6923388731252533
2467, 0.006724090999995269, 0.7089582488852858
2469, 0.006402162000000544, 0.6889428918590522
2474, 0.0064632340000230215, 0.6887631366208569
2474, 0.006853474999985565, 0.7202910266774454
2475, 0.006737248000007412, 0.7179797979797979
2477, 0.006462994000003164, 0.6863140896245459
2482, 0.006444071999993639, 0.6841257050765511
2482, 0.006875085999979547, 0.7203867848509267
2486, 0.006410962000018117, 0.6769911504424779
2486, 0.007164958000004162, 0.7461786001609011
2487, 0.007281986999998935, 0.7603538399678327
2491, 0.0065807500000119035, 0.7025291047771979
2492, 0.006454695000002175, 0.6809791332263242
2498, 0.00709298399999625, 0.732986389111289
2500, 0.006518616999983351, 0.6872
2500, 0.006728019999997059, 0.6976
2509, 0.006774214000017764, 0.7086488640892786
2510, 0.00649617700000249, 0.6944223107569721
2510, 0.006997202999997398, 0.7207171314741035
2511, 0.006238139999993564, 0.667463162086818
2515, 0.007163070000018479, 0.7359840954274354
2518, 0.006974813999988783, 0.7231930103256553
2519, 0.006848787000024004, 0.7086145295752283
2522, 0.006687506000019994, 0.7093576526566218
2523, 0.006446319000019685, 0.6773682124455014
2523, 0.006460959999998295, 0.6777645659928656
2526, 0.006742933999987599, 0.6943784639746635
2527, 0.006965524999998252, 0.7202216066481995
2528, 0.006721275000018068, 0.6934335443037974
2529, 0.007030850999996119, 0.727164887307236
2529, 0.007040740999997297, 0.697113483590352
2532, 0.006869124000019156, 0.7041864139020537
2533, 0.007055097999995041, 0.7181208053691275
2536, 0.006462088000006361, 0.6778391167192429
2536, 0.006581323000006023, 0.6869085173501577
2542, 0.006921533999985741, 0.7073170731707317
2543, 0.006969878999996126, 0.7164766024380653
2544, 0.006743639000006851, 0.6906446540880503
2545, 0.007044948999975986, 0.7222003929273084
2550, 0.007031725999979699, 0.7192156862745098
2555, 0.007294322000007014, 0.7318982387475538
2558, 0.006566657999997005, 0.6892103205629398
2560, 0.006271444999981668, 0.668359375
2561, 0.0065636030000177925, 0.6891839125341663
2562, 0.006797403000007307, 0.7002341920374707
2563, 0.006742487000025221, 0.6905969566913773
2567, 0.006820734000001494, 0.7019867549668874
2569, 0.006470098000022517, 0.6738030362008564
2572, 0.006810245999986364, 0.6971228615863142
2577, 0.00761215999997944, 0.6957702755141637
2578, 0.006880633000008629, 0.6873545384018619
2578, 0.006940362999984018, 0.7040341349883631
2579, 0.006850285000012946, 0.7072508724311749
2583, 0.007053738000024623, 0.7239643825009678
2584, 0.006863431999988734, 0.6927244582043344
2589, 0.0069979399999908765, 0.7180378524526845
2590, 0.006886496999982228, 0.7007722007722008
2590, 0.006913940999993429, 0.7054054054054054
2593, 0.006809371999992209, 0.6887774778249133
2593, 0.006950878999987253, 0.7076745082915542
2595, 0.007843962000009697, 0.7163776493256262
2596, 0.006612096999987216, 0.6810477657935285
2600, 0.006926934000006213, 0.698076923076923
2601, 0.007231243999996195, 0.7258746635909266
2605, 0.007155592999993132, 0.7155470249520154
2605, 0.007348479000000907, 0.7209213051823417
2607, 0.007256785999999238, 0.7188339087073264
2610, 0.0069987180000055105, 0.7065134099616859
2610, 0.007153622000004134, 0.7191570881226054
2612, 0.006739777000007052, 0.6845329249617151
2614, 0.007035365999996657, 0.70734506503443
2616, 0.0069224949999977525, 0.698394495412844
2616, 0.0069245390000105544, 0.6999235474006116
2618, 0.0069331539999950564, 0.7043544690603514
2620, 0.007078515999978663, 0.7103053435114504
2620, 0.007187020000003486, 0.7095419847328245
2621, 0.006815546000012773, 0.6955360549408622
2624, 0.006857572000001255, 0.6935975609756098
2626, 0.007227433999986488, 0.723914699162224
2632, 0.007038767000011603, 0.7112462006079028
2633, 0.007068107999998574, 0.7090770983668819
2633, 0.007104060000017398, 0.7121154576528674
2635, 0.006795819000018355, 0.683111954459203
2643, 0.00730542099998388, 0.7256905032160423
2651, 0.0068921320000185915, 0.6854017351942663
2651, 0.007115059999989626, 0.7038853262919653
2652, 0.007245167999997193, 0.7149321266968326
2653, 0.0073700060000021494, 0.7007161703731625
2653, 0.0073954350000065006, 0.718055032039201
2655, 0.007139637999983961, 0.696798493408663
2656, 0.00683550200000127, 0.672816265060241
2656, 0.0077398020000032375, 0.7157379518072289
2657, 0.006854162999985647, 0.6910048927361686
2657, 0.006864324000019906, 0.6815957847196086
2657, 0.007215699999989056, 0.7086940158073015
2658, 0.0069525729999782016, 0.6918735891647856
2659, 0.006839159000008976, 0.6803309514855209
2660, 0.0070392189999779475, 0.6977443609022557
2664, 0.006766708000014887, 0.6775525525525525
2667, 0.006833118000002969, 0.6861642294713161
2667, 0.00713253999998642, 0.7041619797525309
2667, 0.007180046000001994, 0.7037870266216723
2669, 0.0070426640000107454, 0.6965155488947171
2670, 0.007514744000019391, 0.7082397003745319
2671, 0.007380364999988842, 0.7184575065518533
2675, 0.007031492000010076, 0.6960747663551402
2677, 0.006789521000001741, 0.6813597310422115
2681, 0.007074087000006557, 0.7045878403580753
2683, 0.007166864999987865, 0.6988445769660827
2686, 0.0071047590000148375, 0.6921072226358898
2688, 0.007355708999995159, 0.7135416666666666
2690, 0.007228346999994528, 0.7115241635687732
2691, 0.007027852999982542, 0.6975102192493496
2691, 0.007298245000015413, 0.7086584912671869
2695, 0.006710492999985718, 0.6656771799628942
2697, 0.0070972450000112985, 0.703744901742677
2699, 0.006901221000020996, 0.6780288995924416
2700, 0.00707142699999963, 0.6907407407407408
2700, 0.007087837000000263, 0.7003703703703704
2701, 0.0069643989999974565, 0.6827101073676416
2704, 0.00726097899999445, 0.7071005917159763
2706, 0.007363421000007975, 0.7080561714708056
2708, 0.007001240000022335, 0.6861152141802068
2708, 0.0070304429999907825, 0.6946085672082718
2709, 0.0069173690000070565, 0.6877076411960132
2712, 0.0070211280000194165, 0.6906342182890856
2716, 0.006976894999979777, 0.6822533136966127
2725, 0.006967410000015661, 0.6730275229357798
2730, 0.0068916840000099455, 0.671062271062271
2730, 0.006970959000000221, 0.6787545787545788
2731, 0.007085359999990715, 0.6825338703771512
2735, 0.007118571999995993, 0.6990859232175503
2735, 0.007279135999993969, 0.6946983546617916
2737, 0.007381132000006119, 0.7069784435513335
2738, 0.007186530999973684, 0.7059897735573412
2740, 0.007575705999983029, 0.7200729927007299
2740, 0.007788540999996485, 0.7062043795620438
2741, 0.007384263000005831, 0.704487413352791
2742, 0.006892947000011418, 0.6684901531728665
2742, 0.007134483000015734, 0.6947483588621444
2743, 0.007081916000004185, 0.6846518410499454
2744, 0.006981526999993548, 0.6756559766763849
2746, 0.00771823200000199, 0.7137654770575382
2749, 0.007020909999994274, 0.6900691160421971
2754, 0.007301785000009886, 0.6935366739288308
2757, 0.007137322999994922, 0.6786361987667755
2758, 0.007066840000021557, 0.6812907904278462
2759, 0.00716939099999081, 0.6872055092424791
2760, 0.007266878999985238, 0.7021739130434783
2760, 0.007674637999997458, 0.7192028985507246
2762, 0.007230512000006684, 0.6965966690803765
2764, 0.007085538999973551, 0.6751085383502171
2764, 0.007486013999994157, 0.7149059334298119
2766, 0.008744289999981447, 0.7169197396963124
2772, 0.007309993000006898, 0.6911976911976911
2772, 0.007594968999995899, 0.7189754689754689
2777, 0.0073782569999991665, 0.7068779258192294
2778, 0.007317454999991924, 0.7048236141108711
2778, 0.007349317000006295, 0.703023758099352
2783, 0.007212871999996651, 0.6927775781530722
2784, 0.007517497999998568, 0.7151580459770115
2787, 0.007330147999994097, 0.6968066020810908
2788, 0.006847958999998127, 0.6642754662840746
2791, 0.00699795200000608, 0.6635614475098531
2791, 0.007661006999995834, 0.7151558581153709
2793, 0.007554032000001598, 0.7096312209094164
2794, 0.007069025000021156, 0.677881173944166
2795, 0.007770856000007598, 0.6948121645796065
2797, 0.0073856019999993805, 0.6946728637826243
2800, 0.007268060000001242, 0.6925
2802, 0.007506340000020373, 0.7019985724482513
2803, 0.007091599999995424, 0.6735640385301462
2803, 0.0072077719999867895, 0.6949696753478416
2804, 0.007386914999983674, 0.7018544935805991
2805, 0.007241048999986788, 0.6855614973262032
2805, 0.00787560100002338, 0.6923351158645277
2806, 0.007158734000000777, 0.6838916607270136
2808, 0.007121356999988393, 0.6716524216524217
2808, 0.0074971210000001065, 0.7069088319088319
2809, 0.0072075790000099005, 0.6824492702029192
2811, 0.007078586000005771, 0.6709356101031662
2812, 0.00754664600000865, 0.701280227596017
2815, 0.007359790000009525, 0.6898756660746004
2819, 0.007624332999995431, 0.7151472153245831
2822, 0.007764145999999528, 0.7172218284904324
2823, 0.007609803999997666, 0.7052780729720156
2824, 0.007202726000002713, 0.6859065155807366
2829, 0.007620446000004222, 0.6991869918699187
2830, 0.007342000999983611, 0.6840989399293286
2830, 0.008817391000008001, 0.6922261484098939
2831, 0.00728472899999133, 0.681031437654539
2841, 0.007377599999983886, 0.6937697993664202
2843, 0.007411357999984602, 0.6855434400281393
2848, 0.007573609999980135, 0.6959269662921348
2854, 0.007166591999975935, 0.6811492641906096
2857, 0.007169481999994787, 0.6713335666783339
2858, 0.007450547000019014, 0.6959412176347096
2859, 0.007591018999988819, 0.6995452955578874
2860, 0.0077222090000077515, 0.6895104895104895
2862, 0.007158567000004723, 0.6715583508036338
2864, 0.007966808999981367, 0.7245111731843575
2871, 0.007334463000006508, 0.6743295019157088
2871, 0.007552285999992137, 0.7046325322187391
2873, 0.007502713000008043, 0.6923076923076923
2873, 0.007599969000011697, 0.6954403063000348
2876, 0.007490798999981507, 0.6783727399165508
2879, 0.00708586700000069, 0.656477943730462
2880, 0.007591980000000831, 0.6947916666666667
2881, 0.007817190999986678, 0.7115584866365845
2884, 0.007313328999998703, 0.6907073509015257
2884, 0.00731681800002093, 0.6723300970873787
2887, 0.007601002000001245, 0.6948389331485971
2887, 0.007882219000009627, 0.7291305853827502
2894, 0.007711358999983986, 0.7201105736005529
2896, 0.007543316999999661, 0.6895718232044199
2897, 0.007750025999996524, 0.6979634104245771
2901, 0.00829305799999247, 0.7111340916925198
2902, 0.007371898000002375, 0.6812543073742247
2902, 0.007766209999999774, 0.7064093728463129
2902, 0.008718880000003537, 0.6891798759476223
2911, 0.007559302999993633, 0.6990724836825833
2915, 0.007812189999981456, 0.7063464837049743
2915, 0.008015980000010359, 0.7108061749571184
2917, 0.007507072999999309, 0.6791223860130271
2918, 0.007794713999999203, 0.7011651816312543
2923, 0.007392479999992929, 0.6732808758125214
2927, 0.007587083999993638, 0.6870515886573283
2927, 0.007888567000009061, 0.6952511103518961
2934, 0.007577260999994451, 0.6820040899795501
2935, 0.007209856999992326, 0.6684838160136286
2936, 0.0077139819999842985, 0.7029972752043597
2937, 0.0075905790000092566, 0.6836908409942117
2939, 0.007523264000013796, 0.6873086083701939
2940, 0.008510001999979977, 0.7061224489795919
2941, 0.007545916999987412, 0.6773206392383543
2945, 0.0075296379999940655, 0.6760611205432937
2948, 0.007433197999972663, 0.6726594301221167
2948, 0.007586951999996927, 0.687584803256445
2948, 0.007645507999995971, 0.6886024423337856
2949, 0.00767560299999559, 0.6927772126144456
2949, 0.007737786000006963, 0.6937945066124109
2964, 0.007537437999985741, 0.6730769230769231
2967, 0.0075118110000005345, 0.6761038085608359
2968, 0.007279308999983414, 0.657345013477089
2969, 0.007158273999976927, 0.6611653755473224
2969, 0.007786028999987593, 0.693499494779387
2970, 0.007967618999998649, 0.6814814814814815
2970, 0.007970054999987042, 0.7077441077441078
2971, 0.007215964000010899, 0.6593739481656008
2972, 0.00726329599999076, 0.6621803499327052
2976, 0.007740133999988075, 0.6875
2976, 0.007740294000001313, 0.6911962365591398
2984, 0.008145159000008562, 0.7117962466487936
2984, 0.008344377000014447, 0.6843163538873994
2985, 0.007861222999991924, 0.6988274706867672
2986, 0.007832804999992504, 0.6942397856664434
2988, 0.0075388169999826005, 0.6706827309236948
2990, 0.007493637999999692, 0.6622073578595318
2990, 0.008003438000002916, 0.7036789297658863
2991, 0.007421338999989757, 0.6583082581076563
2991, 0.008437633999989202, 0.6646606486125042
2996, 0.00762373300000263, 0.6652202937249666
2997, 0.007479228999983434, 0.6706706706706707
2997, 0.007791548000000148, 0.6836836836836837
2998, 0.007768343000009281, 0.6827885256837892
2999, 0.007848375999998325, 0.6918972990996999
2999, 0.007856094000004532, 0.6668889629876625
3000, 0.007383113999992474, 0.657
3000, 0.00780459400002087, 0.702
3000, 0.007895484000016495, 0.701
3001, 0.007291130999988127, 0.6617794068643785
3002, 0.007372110000005705, 0.6635576282478348
3002, 0.007391613000010011, 0.6705529646902065
3003, 0.007796839999997474, 0.6973026973026973
3004, 0.007469184000001405, 0.6654460719041279
3004, 0.00784273099998245, 0.6927430093209055
3006, 0.00748717799999099, 0.6646706586826348
3008, 0.007643688999991127, 0.6732047872340425
3011, 0.008328012999982093, 0.6781800066423115
3012, 0.007334995000007893, 0.6580345285524568
3012, 0.007399843000001738, 0.6640106241699867
3016, 0.007662732000000005, 0.6767241379310345
3017, 0.007767096000009133, 0.6675505469008949
3020, 0.007551186999990023, 0.6758278145695364
3020, 0.00777466700000673, 0.666887417218543
3020, 0.00828872200000319, 0.6930463576158941
3021, 0.007492475999981707, 0.6650115855676928
3022, 0.007796008000013899, 0.6671078755790867
3022, 0.007856400999997959, 0.6813368630046327
3023, 0.007744250000001784, 0.6731723453522991
3027, 0.007399544000008973, 0.6656755863891642
3028, 0.007801971999981561, 0.6839498018494056
3031, 0.007411029999985885, 0.6641372484328605
3031, 0.007531483000008166, 0.6704058066644671
3031, 0.007556061999991925, 0.6677664137248432
3031, 0.0078268370000103, 0.6839326954800395
3031, 0.00793183199999703, 0.6849224678323985
3032, 0.007347543999998152, 0.6596306068601583
3034, 0.007582433999999694, 0.6697429136453527
3034, 0.008045774000009942, 0.6984179301252472
3035, 0.008077766999974756, 0.6962108731466228
3040, 0.007273814000001266, 0.65625
3040, 0.0077789759999973285, 0.687171052631579
3042, 0.007767623000006552, 0.6896778435239974
3043, 0.007521631000003026, 0.664804469273743
3043, 0.007553592999983039, 0.6621754847190273
3043, 0.007810452000001078, 0.6710483075911929
3044, 0.007678436000020383, 0.6744415243101183
3044, 0.007739678999996613, 0.6793692509855453
3045, 0.007625206000000162, 0.6696223316912973
3046, 0.007441817000000128, 0.6634931057124097
3046, 0.007578116999980011, 0.6638214051214708
3046, 0.007629164999997329, 0.6759684832567301
3046, 0.007759340000006887, 0.6805646749835851
3046, 0.00800976700000433, 0.6904136572554169
3047, 0.008139128999999912, 0.6951099442074171
3052, 0.007676661999994394, 0.6769331585845347
3053, 0.0077090879999843764, 0.6888306583688175
3053, 0.008071991999997863, 0.6989846053062562
3054, 0.007476013000001558, 0.6532416502946955
3054, 0.007518485000019837, 0.6601178781925344
3054, 0.007553649999977097, 0.66633922724296
3056, 0.007409525000014128, 0.6593586387434555
3056, 0.007513102999979537, 0.6678664921465969
3056, 0.008057473999997455, 0.6894633507853403
3057, 0.007656730000007883, 0.666993784756297
3058, 0.007789494000007835, 0.6795291039895357
3059, 0.007615523999987772, 0.6711343576332135
3060, 0.0077995899999905305, 0.668954248366013
3061, 0.007581641999991007, 0.6615485135576609
3062, 0.007964561999983744, 0.693990855649902
3062, 0.008041574999992918, 0.6792945787067276
3063, 0.008333356999997932, 0.6960496245510936
3064, 0.007671046000012893, 0.674934725848564
3065, 0.007640828999996074, 0.665252854812398
3067, 0.007415240999989692, 0.6465601565047278
3071, 0.007681670000010854, 0.6717681536958645
3072, 0.00789824100002079, 0.6800130208333334
3073, 0.007833210000001145, 0.6684022128213473
3074, 0.007550793000007161, 0.6698113207547169
3075, 0.0077306350000014845, 0.6819512195121952
3076, 0.007526671000022134, 0.6648244473342002
3076, 0.007675833999996939, 0.668075422626788
3077, 0.007950415999999905, 0.688332791680208
3078, 0.007615560000004962, 0.6663417803768681
3078, 0.008045336000009229, 0.6741390513320338
3078, 0.00810508700001833, 0.6890838206627681
3079, 0.007829837000002726, 0.6771679116596298
3079, 0.00790260200000148, 0.6843130886651511
3081, 0.008766420999990032, 0.6984745212593314
3084, 0.007870437999997648, 0.691958495460441
3085, 0.008053115999985039, 0.6790923824959482
3085, 0.008082712000003767, 0.6628849270664505
3086, 0.007764801999996962, 0.6730395333765392
3087, 0.007636407000006784, 0.6660187884677681
3087, 0.008396133999980293, 0.7039196631033365
3090, 0.007593926999987843, 0.6605177993527508
3091, 0.008157931999988932, 0.7020381753477839
3093, 0.009438961000000745, 0.7074038150662787
3094, 0.007911229000001185, 0.6813186813186813
3096, 0.00805288499998369, 0.7034883720930233
3096, 0.008207198999997445, 0.7041343669250646
3096, 0.008965355999976055, 0.7073643410852714
3097, 0.008088147000023582, 0.6874394575395544
3098, 0.007664865000009513, 0.658166559070368
3098, 0.007847223999988273, 0.6694641704325371
3100, 0.008094938000027696, 0.6651612903225806
3103, 0.0074520350000000235, 0.6561392201095714
3104, 0.007772360000018352, 0.6620489690721649
3104, 0.007784692000001314, 0.6739690721649485
3105, 0.007923300000015843, 0.6776167471819645
3106, 0.0075650320000022475, 0.6632324533161623
3106, 0.007681209999987004, 0.6680618158403091
3106, 0.007766392000007727, 0.6667739858338699
3107, 0.009108265000008942, 0.6816865143224976
3110, 0.0076368269999989025, 0.6678456591639872
3111, 0.007773280999998633, 0.6663452266152362
3114, 0.00824940699999388, 0.7013487475915221
3116, 0.0077007559999913155, 0.6611039794608472
3116, 0.008107085999995434, 0.686777920410783
3119, 0.0082500259999847, 0.6960564283424174
3123, 0.007734985000013239, 0.6644252321485751
3124, 0.008135307999992847, 0.6975032010243278
3125, 0.007715649999994412, 0.66208
3126, 0.007648352999979124, 0.6554702495201535
3129, 0.008194380999981377, 0.6868008948545862
3130, 0.007776142000011532, 0.6696485623003194
3131, 0.007609599999994998, 0.6614500159693388
3131, 0.008420026999999664, 0.6732673267326733
3133, 0.007618075999999974, 0.6556016597510373
3134, 0.007726179000002276, 0.6624122527121888
3134, 0.007738932999984627, 0.6585832801531589
3138, 0.008062447000014572, 0.6733588272785214
3139, 0.007857715999989523, 0.6677285759796113
3140, 0.00750467599999638, 0.652547770700637
3143, 0.007820357000014155, 0.6703786191536748
3144, 0.007547791000007464, 0.6529898218829516
3144, 0.007931912999993074, 0.6803435114503816
3144, 0.008424333999982991, 0.7067430025445293
3145, 0.00803312700000447, 0.6769475357710651
3146, 0.007936548999992965, 0.6706929434202161
3150, 0.008281823999993776, 0.6996825396825397
3151, 0.007583853999989287, 0.6629641383687718
3151, 0.007900857000009864, 0.6791494763567122
3151, 0.008094951000003903, 0.6683592510314186
3152, 0.007940522000012606, 0.6789340101522843
3154, 0.007946395999994138, 0.6629676601141408
3154, 0.008093733000009706, 0.6870640456563094
3155, 0.008039367999998603, 0.6770206022187005
3157, 0.008100433999999268, 0.6705733291099145
3159, 0.007488838999989866, 0.654320987654321
3159, 0.007900191999993922, 0.6767964545742323
3160, 0.008433235000012473, 0.6977848101265823
3161, 0.007958524999992278, 0.6703574818095539
3163, 0.007929687999990165, 0.684476762567183
3163, 0.008191676000024017, 0.6939614290230793
3165, 0.007872671999990644, 0.6600315955766193
3165, 0.007896508999976959, 0.6720379146919432
3166, 0.00808765400000766, 0.6813013265950727
3169, 0.007911938000006558, 0.6724518775639002
3169, 0.00823599800000352, 0.6954875355001577
3170, 0.008454290999992509, 0.6845425867507886
3171, 0.007732661000005692, 0.662882371491643
3171, 0.007831215999999586, 0.6682434563229265
3171, 0.007930361999996194, 0.6676127404604226
3171, 0.008220580999989124, 0.6871649321980448
3172, 0.007853928999992377, 0.6733921815889029
3172, 0.008281055999987075, 0.6604665825977302
3173, 0.007825155999995559, 0.6665616136148755
3174, 0.00798591000000215, 0.6814744801512287
3179, 0.00765393899999367, 0.653350110097515
3179, 0.007707803999977614, 0.6637307329348852
3179, 0.007813030999983539, 0.6568103177099717
3180, 0.007960773999997173, 0.6710691823899371
3181, 0.007935682999999472, 0.675888085507702
3181, 0.008310180000023593, 0.6909776799748507
3184, 0.008051510000001372, 0.6777638190954773
3185, 0.0076217399999904956, 0.6508634222919937
3188, 0.008104983999999149, 0.6759723964868256
3188, 0.009121203999995942, 0.7051442910915935
3189, 0.007766811999999845, 0.6547507055503292
3192, 0.007913532999992867, 0.6713659147869674
3195, 0.008068917000002784, 0.6779342723004694
3196, 0.007918923999994831, 0.6730287859824781
3198, 0.008047437000016089, 0.6766729205753595
3199, 0.007977431000000479, 0.673648015004689
3200, 0.008338983000015787, 0.6840625
3203, 0.0077169630000071265, 0.659694036840462
3204, 0.007982371000025523, 0.6666666666666666
3205, 0.00840718099999549, 0.6967238689547582
3207, 0.008369570000013482, 0.6888057374493296
3208, 0.008118225000004031, 0.6698877805486284
3212, 0.008456572999989476, 0.6734122042341221
3214, 0.008367621000019199, 0.693528313627878
3214, 0.008399999999994634, 0.686372121966397
3216, 0.007763629999999466, 0.6495646766169154
3216, 0.008246480999986261, 0.6856343283582089
3218, 0.008195577999998704, 0.6830329397141082
3222, 0.00799417499999322, 0.6610800744878957
3223, 0.008496609999980365, 0.6636673906298479
3224, 0.008240768999996817, 0.6693548387096774
3224, 0.008314135999995642, 0.6879652605459057
3225, 0.008038834999979372, 0.6694573643410853
3226, 0.00792856399999664, 0.6611903285802851
3226, 0.008103075000008175, 0.6717296962182269
3226, 0.008366310000013755, 0.6869187848729076
3230, 0.007888856999983318, 0.6643962848297214
3231, 0.008380361000007497, 0.6799752398638192
3234, 0.00808807200002093, 0.6753246753246753
3236, 0.007886028000001488, 0.669344870210136
3237, 0.007855753000001187, 0.6570898980537535
3237, 0.007857364000017242, 0.6586345381526104
3237, 0.007865258999999014, 0.6620327463700958
3237, 0.00804601800001592, 0.6750077232004943
3238, 0.007678222000009782, 0.653798641136504
3238, 0.007978887000007262, 0.6578134651019147
3238, 0.008002862000012101, 0.6673872760963557
3239, 0.007893621999983225, 0.6622414325409077
3241, 0.00817574899997453, 0.6732489972230793
3243, 0.008488333000002513, 0.6971939562133826
3245, 0.008165558000001738, 0.6745762711864407
3247, 0.008391498999998248, 0.6815522020326455
3253, 0.00797956699997826, 0.6609283738087919
3254, 0.00804276900001355, 0.6662569145666871
3256, 0.008172380000019075, 0.664004914004914
3257, 0.007898587999989104, 0.6622658888547743
3257, 0.008078568000001951, 0.6720908811789991
3258, 0.008041442000006782, 0.6642111724984653
3258, 0.008757738000014115, 0.6863106200122775
3259, 0.008028556999988723, 0.6627799938631482
3261, 0.008034065999993345, 0.6669733210671573
3261, 0.00924240199998394, 0.6770929162833487
3262, 0.008177512999992587, 0.6704475781729
3264, 0.007835597999985566, 0.6614583333333334
3264, 0.008024091999999428, 0.6626838235294118
3265, 0.008038305000013679, 0.6725880551301685
3265, 0.008645639999997456, 0.6698315467075038
3273, 0.008178807999996707, 0.6645279560036663
3273, 0.008538823999998613, 0.6914146043385273
3277, 0.007869784000007485, 0.6539517851693623
3277, 0.008418392999999469, 0.6820262435154104
3280, 0.00835050899999601, 0.6753048780487805
3280, 0.008423271999987492, 0.6896341463414634
3286, 0.008064584999999624, 0.6585514303104077
3287, 0.008246775000003481, 0.6747794341344692
3287, 0.008694699999978184, 0.6948585336172802
3289, 0.008521736999995255, 0.6932198236546062
3294, 0.008228225000010525, 0.6599878567091682
3294, 0.008515905000024304, 0.6727383120825744
3295, 0.007740403000013885, 0.6467374810318665
3295, 0.00828156699998317, 0.6707132018209409
3297, 0.008381087999993042, 0.6821352744919624
3299, 0.008377665000011802, 0.6786905122764474
3300, 0.00827605400002085, 0.6596969696969697
3302, 0.008184607000004007, 0.6674742580254391
3303, 0.008159359000018185, 0.6727217680896155
3306, 0.008612126000002718, 0.6839080459770115
3307, 0.00858441899998752, 0.6843060175385546
3309, 0.008051287999990109, 0.6588093079480205
3309, 0.008791083999994953, 0.6962828649138713
3309, 0.009267590999996855, 0.6863100634632819
3310, 0.008204561000013655, 0.6676737160120846
3311, 0.008734298999996781, 0.6599214738749622
3312, 0.007936553000007507, 0.648852657004831
3312, 0.008281088000018144, 0.6678743961352657
3312, 0.00840707599999746, 0.6711956521739131
3313, 0.008644892999996046, 0.6824630244491398
3321, 0.008222011000015073, 0.663354411321891
3325, 0.008234514999998055, 0.675187969924812
3327, 0.008111978000016506, 0.6606552449654344
3328, 0.00786999700000024, 0.6508413461538461
3333, 0.008295837000019901, 0.6600660066006601
3333, 0.008362624000000096, 0.6606660666066607
3334, 0.008749276000003192, 0.7051589682063587
3335, 0.008095410000009906, 0.6536731634182908
3337, 0.008223138999994717, 0.6631705124363201
3337, 0.008273989000002757, 0.6562780940964938
3338, 0.008286349999991671, 0.6614739364889155
3339, 0.008683911000019862, 0.6873315363881402
3340, 0.008249250000005759, 0.6586826347305389
3341, 0.008223690999983546, 0.6578868602214906
3342, 0.00854089599999952, 0.6912028725314183
3343, 0.008420040000004292, 0.672749027819324
3345, 0.00789056299998947, 0.6514200298953662
3345, 0.008108264999975745, 0.6514200298953662
3346, 0.008776192999988552, 0.6975493126120741
3347, 0.008426952000007759, 0.6794144009560801
3350, 0.008421763999990617, 0.6683582089552239
3350, 0.008668600999982345, 0.6835820895522388
3350, 0.008694968999975572, 0.6871641791044776
3352, 0.00817716599999585, 0.6446897374701671
3353, 0.008255847000015137, 0.6650760512973457
3358, 0.008373586000004707, 0.6631923764145324
3359, 0.008466088999995236, 0.6728192914557904
3359, 0.009253172999990511, 0.7112235784459661
3360, 0.008925306999998384, 0.6732142857142858
3362, 0.008458206000000246, 0.6817370612730518
3363, 0.008575061000016149, 0.6794528694617901
3368, 0.008352261999988286, 0.6570665083135392
3370, 0.008645999999998821, 0.6584569732937685
3373, 0.008441680000004226, 0.6697302104951082
3375, 0.008696048000018664, 0.6823703703703704
3375, 0.008702825000000303, 0.6906666666666667
3382, 0.008454212000003736, 0.673270254287404
3385, 0.008528966999989507, 0.6791728212703102
3385, 0.008886304000014889, 0.674741506646972
3385, 0.009073194000023932, 0.676218611521418
3386, 0.008668469000014056, 0.683402244536326
3387, 0.008478257000007261, 0.6770002952465308
3388, 0.00839098199998034, 0.6753246753246753
3388, 0.008453246000016179, 0.66086186540732
3388, 0.008767632000001413, 0.7007083825265643
3395, 0.008508898999991743, 0.675699558173785
3397, 0.008876570000012407, 0.6670591698557551
3401, 0.008686662999991768, 0.6800940899735372
3402, 0.008304714000018976, 0.6499118165784833
3402, 0.009259696000015083, 0.6775426219870664
3406, 0.008250072000009823, 0.6564885496183206
3406, 0.008274003999986235, 0.6579565472695243
3407, 0.008632596000012427, 0.6736131493982976
3407, 0.008662340000000768, 0.677428823011447
3408, 0.008490271999988863, 0.6631455399061033
3414, 0.008446454999983644, 0.6640304628002344
3418, 0.008345385000012584, 0.6600351082504389
3420, 0.008308128000010129, 0.6578947368421053
3422, 0.008341598000015438, 0.6607247223845705
3422, 0.008894346000005271, 0.6931618936294565
3427, 0.008738291999975445, 0.67347534286548
3430, 0.008470678000009002, 0.6577259475218659
3433, 0.008573933000008083, 0.6731721526361782
3436, 0.008346972999987656, 0.6536670547147846
3437, 0.008388868999986698, 0.6543497235961594
3441, 0.008610513999997238, 0.6759662888695147
3442, 0.008291171999985636, 0.6528181289947704
3442, 0.008357377000010047, 0.6615339918651947
3443, 0.00835960300000238, 0.6491431890792914
3443, 0.008922320000010586, 0.6854487365669474
3444, 0.008296294000018634, 0.6527293844367015
3444, 0.008331280999982482, 0.6530197444831591
3445, 0.008619080000016766, 0.6801161103047896
3447, 0.00877955600000746, 0.6785610675950101
3447, 0.00890317400001095, 0.7003191180736873
3450, 0.008180238000022655, 0.6452173913043479
3451, 0.008364432999997007, 0.6574905824398725
3452, 0.008651256000007379, 0.6743916570104287
3455, 0.009304723000013837, 0.6871201157742403
3460, 0.008456478999988803, 0.6670520231213873
3462, 0.008838733000004595, 0.6941074523396881
3464, 0.00851604799998995, 0.667147806004619
3468, 0.008451425000004065, 0.6591695501730104
3472, 0.008380998999996336, 0.6615783410138248
3484, 0.008508745999989742, 0.6572904707233066
3489, 0.008953364999996438, 0.6881627973631413
3492, 0.0089255430000037, 0.6829896907216495
3495, 0.008702377000020078, 0.6766809728183119
3499, 0.00841438999998445, 0.6553300943126608
3499, 0.008565312999991193, 0.655901686196056
3501, 0.00853745999998523, 0.6558126249642959
3502, 0.008274454000002152, 0.6519131924614506
3508, 0.008760362999993276, 0.6684720638540479
3512, 0.008499255000003814, 0.6546127562642369
3512, 0.00856443399999307, 0.6631548974943052
3512, 0.008698954000010417, 0.6540432801822323
3515, 0.008885577999990346, 0.669701280227596
3515, 0.008886060999998335, 0.6759601706970128
3516, 0.008492016000019476, 0.6513083048919226
3520, 0.008550275000004603, 0.6525568181818182
3520, 0.008588470999995934, 0.675
3520, 0.00870043300000134, 0.6721590909090909
3529, 0.008718158000021958, 0.6712949844148484
3531, 0.008471173999993198, 0.6457094307561597
3537, 0.008775600999996414, 0.6728866270851004
3539, 0.008598508999995147, 0.6674201751907318
3540, 0.008687569999977995, 0.6596045197740112
3558, 0.008577561000009837, 0.6551433389544689
3566, 0.00909190300001228, 0.679472798653954
3568, 0.008568408999991561, 0.6524663677130045
3573, 0.00860852799999634, 0.649594178561433
3573, 0.009375589999990552, 0.6571508536244053
3581, 0.00889872599998398, 0.6674113376151913
3582, 0.009073607000004813, 0.68285873813512
3582, 0.009357407000010198, 0.695142378559464
3583, 0.00949830200002566, 0.6868545911247558
3585, 0.008717262000004666, 0.6608089260808926
3585, 0.009366135000021814, 0.6867503486750348
3593, 0.009076948000000584, 0.6768716949624269
3598, 0.00893236400000319, 0.6750972762645915
3599, 0.008624736999991, 0.6515698805223673
3600, 0.008756690000012668, 0.6625
3603, 0.008507852000008143, 0.6450180405217874
3605, 0.008675621999998384, 0.6510402219140083
3608, 0.008694403999982114, 0.6524390243902439
3611, 0.008731310999991138, 0.6513431182497923
3612, 0.009070974999985992, 0.6741417497231451
3617, 0.008957831999993005, 0.6627038982582251
3619, 0.008696751999991648, 0.6413373860182371
3623, 0.008735527999988335, 0.648909743306652
3624, 0.009210125000009839, 0.6812913907284768
3631, 0.009517027000015332, 0.6689617185348389
3634, 0.008652814000015496, 0.6535498073747936
3635, 0.009142659999980651, 0.6767537826685007
3637, 0.010190984999979946, 0.6700577398955183
3639, 0.00860627999998087, 0.6452322066501787
3641, 0.00934144699999706, 0.6684976654765175
3645, 0.008807668000002877, 0.6540466392318244
3651, 0.00890264500000626, 0.650232812927965
3658, 0.012191013999995448, 0.6703116457080371
3661, 0.008769153000002916, 0.6533733952472002
3662, 0.009118548000003557, 0.6758601856908794
3663, 0.00912856300001863, 0.6685776685776685
3673, 0.008828553999990163, 0.6607677647699428
3676, 0.009068635999994967, 0.6629488574537541
3677, 0.009299720999990768, 0.6799020940984498
3679, 0.00871924900002341, 0.6482739874966024
3680, 0.008820517999993172, 0.6519021739130435
3681, 0.009035319000020081, 0.6693833197500679
3686, 0.009070453999981964, 0.6475854584915898
3688, 0.008758875000012267, 0.6453362255965293
3688, 0.008878927000012027, 0.6399132321041214
3692, 0.009021375000003218, 0.6619718309859155
3692, 0.009300635000016655, 0.6763271939328277
3700, 0.009317828000007466, 0.6843243243243243
3702, 0.008767546000001403, 0.6458670988654781
3710, 0.010012090999993006, 0.6539083557951483
3711, 0.008815063000014334, 0.6370250606305577
3711, 0.009097144000008939, 0.6601994071678793
3711, 0.009254406999986031, 0.6693613581244947
3714, 0.008929927999986376, 0.6583198707592892
3714, 0.008933499000022493, 0.654281098546042
3722, 0.00916023000002042, 0.6655024180548093
3724, 0.00947659600001316, 0.6745435016111708
3726, 0.00864675000002535, 0.6366076221148685
3727, 0.00890375500000573, 0.6466326804400322
3728, 0.009032757999989371, 0.6574570815450643
3731, 0.009427438000017219, 0.6762262128115787
3737, 0.008781585000008363, 0.6411560074926411
3740, 0.00916563599997744, 0.6671122994652406
3742, 0.009030533999975887, 0.649919828968466
3743, 0.009277289999999994, 0.6615014694095646
3746, 0.00900728899998171, 0.6505605979711693
3746, 0.009120163000005732, 0.6537640149492793
3746, 0.009486918999982663, 0.6764548852108916
3755, 0.009029630000014777, 0.6599201065246338
3755, 0.009558755999989899, 0.6889480692410119
3756, 0.00893546800000422, 0.6509584664536742
3757, 0.008888216000002558, 0.6462603140803833
3760, 0.009035710000006247, 0.6470744680851064
3760, 0.009036277000006976, 0.660372340425532
3762, 0.009700750999996899, 0.6855396065922382
3768, 0.008700882999988835, 0.6358811040339702
3776, 0.009233832999996139, 0.659427966101695
3782, 0.008939436000019896, 0.645425700687467
3785, 0.009177055000009204, 0.6676354029062087
3786, 0.009252580000008948, 0.6701003697834126
3789, 0.008795865999985608, 0.6347321192926894
3791, 0.009186306999993121, 0.6615668689000264
3793, 0.008915397999999186, 0.6398629053519641
3796, 0.009136632999997119, 0.6520021074815595
3797, 0.009384385999993583, 0.6578878061627601
3800, 0.008920178000010992, 0.6394736842105263
3800, 0.009134186000011368, 0.6547368421052632
3800, 0.009554253999993989, 0.6807894736842105
3801, 0.009100861999996823, 0.6495659037095501
3801, 0.009613419000004342, 0.6800841883714812
3810, 0.009868529000016224, 0.6669291338582677
3818, 0.009569214999999076, 0.6736511262441068
3819, 0.00919107999999369, 0.6465043205027494
3819, 0.009387496000016426, 0.6588112071222834
3822, 0.009569239000001062, 0.6726844583987441
3824, 0.009431857000009813, 0.6443514644351465
3825, 0.00933152199999654, 0.6541176470588236
3828, 0.0091252299999951, 0.6449843260188087
3828, 0.009259176999989904, 0.6494252873563219
3831, 0.009385973000007652, 0.6627512398851475
3836, 0.009366140999986783, 0.644681960375391
3845, 0.009341812000002392, 0.658777633289987
3846, 0.009318099000012126, 0.6648465938637546
3847, 0.009066316000001962, 0.6430985183259683
3850, 0.009140798000004224, 0.6449350649350649
3851, 0.009118938000000298, 0.6489223578291353
3860, 0.009055469000003313, 0.6383419689119171
3860, 0.009271126999976786, 0.6432642487046633
3860, 0.009988973000019996, 0.6686528497409326
3867, 0.009251730000016778, 0.6490819756917507
3869, 0.00934762800000044, 0.6611527526492634
3870, 0.009248560999992606, 0.6364341085271318
3872, 0.009314489000018966, 0.6472107438016529
3873, 0.009269042999989097, 0.6483346243222309
3874, 0.00950344599999653, 0.6685596282911719
3877, 0.009015668999978743, 0.6381222594789786
3890, 0.00918434499999421, 0.6380462724935733
3890, 0.009195777000002181, 0.6519280205655527
3891, 0.009182925000004616, 0.6430223592906708
3891, 0.009234765999991623, 0.643793369313801
3895, 0.009340309000009483, 0.6513478818998716
3898, 0.010265119999985473, 0.6829143150333504
3901, 0.009472989000016696, 0.657011022814663
3910, 0.00923130600000377, 0.6452685421994885
3914, 0.009503092000016977, 0.6640265712825754
3921, 0.00946661200001131, 0.6628411119612344
3922, 0.00934437899999807, 0.6481387047424784
3924, 0.00932258299999944, 0.6353211009174312
3927, 0.009534008999992238, 0.661319073083779
3928, 0.009159213999993199, 0.6377291242362525
3928, 0.010425564999991366, 0.665224032586558
3937, 0.009472721999998157, 0.651765303530607
3943, 0.009246955999998363, 0.6370783667258433
3944, 0.00962284299998828, 0.6526369168356998
3947, 0.009611703999979682, 0.6567012921205979
3952, 0.009854267999998001, 0.65915991902834
3954, 0.009351649999985057, 0.6527567020738493
3955, 0.009801473000010219, 0.6670037926675095
3957, 0.009694050000007337, 0.6575688653019964
3961, 0.00934804799999256, 0.6493309770260035
3962, 0.00952449700000102, 0.6549722362443211
3962, 0.00965005599999813, 0.6529530540131246
3962, 0.009660311999994065, 0.6648157496214033
3964, 0.00962506099997995, 0.6677598385469223
3965, 0.009606023999992885, 0.6519546027742749
3969, 0.009611905999975079, 0.6588561350466112
3969, 0.009640445000002273, 0.6530612244897959
3973, 0.009586133999988533, 0.6519003272086584
3981, 0.009303348000003098, 0.6440592815875408
3983, 0.009718018000000939, 0.654029625910118
3985, 0.00965109699998834, 0.6549560853199499
3988, 0.00936410599999249, 0.6446840521564694
3988, 0.00968257499999936, 0.6539618856569709
3988, 0.00992599299999597, 0.6690070210631895
3989, 0.009409910000016453, 0.6407620957633492
3991, 0.00954444199999216, 0.6567276371836632
3994, 0.009789072999978998, 0.6649974962443665
3997, 0.009586896000001843, 0.6582436827620716
3997, 0.009818763999987823, 0.6632474355766825
3998, 0.00950884400000973, 0.6448224112056028
3999, 0.009998475000003282, 0.6324081020255063
4001, 0.009347785000016984, 0.6345913521619595
4003, 0.00937678700000788, 0.6450162378216338
4006, 0.009355005000003302, 0.6372940589116326
4007, 0.009456502999995564, 0.6481157973546294
4007, 0.00962212899997894, 0.6491140504117794
4007, 0.00969775800001571, 0.6421262790117295
4013, 0.00945646599998895, 0.639172688761525
4014, 0.010725087999986727, 0.6591928251121076
4016, 0.009698705000005248, 0.6444223107569721
4017, 0.009297314000008328, 0.6465023649489668
4017, 0.009452710000005027, 0.6410256410256411
4020, 0.009524294000016198, 0.6432835820895523
4020, 0.009567065999988245, 0.6470149253731343
4024, 0.009991006000007019, 0.6436381709741551
4027, 0.009479300000009516, 0.63868885026074
4027, 0.009936688999999888, 0.6406754407747703
4029, 0.009520256000001837, 0.6495408289898238
4036, 0.00990835900000775, 0.671209117938553
4037, 0.009694631999991543, 0.6502353232598465
4041, 0.009431188999997175, 0.6369710467706013
4042, 0.009613375000014912, 0.6434933201385453
4043, 0.00977308000000221, 0.6566905763047242
4046, 0.009723959000012883, 0.6586752347998023
4053, 0.009573153999980377, 0.6501357019491735
4053, 0.009684042000003501, 0.6323710831482853
4055, 0.010298460999990766, 0.661652281134402
4057, 0.009978656000015462, 0.661819078136554
4058, 0.009596831999999722, 0.6485953671759488
4061, 0.009624822999995786, 0.6409751292785029
4062, 0.00973605300001168, 0.6462333825701625
4063, 0.009757974999985208, 0.6524735417179424
4065, 0.009790524999999661, 0.6516605166051661
4068, 0.010000265000002173, 0.6597836774827925
4069, 0.009545629000001554, 0.6515114278692553
4069, 0.009600676000019348, 0.6357827476038339
4069, 0.010102936000009777, 0.6414352420742198
4071, 0.00998171399999137, 0.6494718742323753
4075, 0.009585025000006908, 0.6358282208588957
4078, 0.009737602999990713, 0.6554683668464933
4082, 0.009803357000009782, 0.65703086722195
4086, 0.00990946699999995, 0.6551639745472344
4086, 0.010145248000014817, 0.6647087616250612
4087, 0.010697233000001916, 0.6562270614142403
4088, 0.009667333999999528, 0.6553326810176126
4089, 0.009675345000005109, 0.6468574223526534
4091, 0.009661220999987563, 0.6472745050109997
4091, 0.010167599999988397, 0.6682962600831093
4095, 0.009953560000013795, 0.6346764346764346
4096, 0.010272762999989027, 0.6455078125
4097, 0.010088316000008035, 0.6739077373688065
4101, 0.009837873000009267, 0.6605705925384052
4105, 0.009662654999999631, 0.648721071863581
4116, 0.009828522000020712, 0.6472303206997084
4117, 0.009474515999983169, 0.6431867864950207
4118, 0.009865461000003961, 0.6488586692569208
4119, 0.009732204999977512, 0.6445739257101238
4122, 0.009563829999990503, 0.6331877729257642
4126, 0.010183691000008821, 0.6686863790596219
4134, 0.009534731000002239, 0.6373971940009676
4135, 0.010139575000010836, 0.6476420798065297
4135, 0.010342713999989428, 0.6759371221281741
4140, 0.00972919200000888, 0.6446859903381642
4140, 0.009864996000004567, 0.6461352657004831
4142, 0.009766078000012612, 0.6426846933848382
4142, 0.010137845000002699, 0.6484789956542732
4149, 0.009652424999984532, 0.6406362979031092
4152, 0.009858465000007754, 0.6433044315992292
4154, 0.010344345000021349, 0.6636976408281174
4157, 0.010110714999996162, 0.6495068559057012
4161, 0.009923884999977872, 0.6493631338620524
4162, 0.009884667999983776, 0.6508889956751561
4164, 0.009820692000005238, 0.649135446685879
4167, 0.010357608999981949, 0.6721862251019919
4177, 0.01036606499999948, 0.6710557816614795
4178, 0.010127063999988195, 0.6524652943992341
4180, 0.00976919499998985, 0.6406698564593302
4181, 0.00984129099998654, 0.6309495336044009
4184, 0.010153038999987984, 0.6465105162523901
4185, 0.010149057999996103, 0.6523297491039427
4186, 0.009701446000008218, 0.6256569517439082
4194, 0.009667995000000928, 0.6263710061993324
4197, 0.01018169299999272, 0.6542768644269716
4201, 0.010192175000014458, 0.6510354677457748
4202, 0.010529022000014265, 0.682294145644931
4205, 0.009854435000022477, 0.6447086801426872
4205, 0.009915742000004002, 0.6420927467300832
4207, 0.00978032500000836, 0.6432136914666032
4208, 0.010398019999996677, 0.6727661596958175
4210, 0.00979633300002547, 0.6339667458432304
4211, 0.010271871000014698, 0.6521016385656614
4214, 0.010070936999994728, 0.6428571428571429
4215, 0.010054617999998072, 0.6465005931198102
4215, 0.010485502999983964, 0.6811387900355872
4217, 0.010378739000003634, 0.6552051221247333
4220, 0.010165974999978289, 0.6459715639810426
4227, 0.010089875000005577, 0.6564939673527325
4228, 0.010019293999988577, 0.6542100283822138
4228, 0.01051954900000851, 0.6738410596026491
4235, 0.010075539000013123, 0.6521841794569068
4240, 0.009795263999990311, 0.6339622641509434
4242, 0.009975220000001173, 0.6414427157001414
4243, 0.009956931000004943, 0.6269149186896064
4246, 0.010002947000003815, 0.6394253414978803
4252, 0.009918935000001738, 0.6373471307619943
4258, 0.01037067799998681, 0.6465476749647722
4263, 0.010081746999986763, 0.6528266479005396
4265, 0.01008092300000385, 0.6475967174677608
4266, 0.009889250000014727, 0.6312705110173464
4269, 0.009825802999984035, 0.6291871632700867
4269, 0.01024241600001119, 0.6528460997891778
4272, 0.009975128999997196, 0.6336610486891385
4273, 0.010478753000001007, 0.6562134331851158
4276, 0.01029307900000731, 0.6414873713751169
4281, 0.010227364000002126, 0.6610604998832048
4285, 0.009975997999987385, 0.6471411901983664
4286, 0.009962280999985751, 0.6376574895007
4293, 0.009877613000014662, 0.6254367575122292
4297, 0.010834429999988515, 0.6707004887130557
4298, 0.009994682000012745, 0.636109818520242
4300, 0.010150910999982443, 0.6337209302325582
4309, 0.010464464999984102, 0.6641912276630308
4312, 0.010165181999980177, 0.641465677179963
4313, 0.010311568999981091, 0.6461859494551356
4315, 0.010401122999979862, 0.6653534183082271
4319, 0.010379537000005712, 0.646677471636953
4326, 0.01055842499999926, 0.6488673139158576
4337, 0.010203893999999991, 0.6386903389439705
4339, 0.010543218999998771, 0.6457709149573635
4340, 0.010000713999971822, 0.6442396313364055
4340, 0.010380617000009806, 0.6495391705069125
4344, 0.010483636999992996, 0.6484806629834254
4350, 0.010177940000005492, 0.6360919540229885
4351, 0.010201394999995728, 0.6389335784877039
4352, 0.010484726000015598, 0.6399356617647058
4360, 0.010317893000006961, 0.6506880733944954
4361, 0.009913554000007707, 0.6175189176794313
4376, 0.010177957999985665, 0.6334552102376599
4382, 0.010029047999978502, 0.6335006846188955
4389, 0.01022610400002577, 0.6352244246981089
4389, 0.010387077000018508, 0.6375028480291638
4392, 0.010148934999989478, 0.6311475409836066
4393, 0.010251594999999725, 0.6494422945595265
4397, 0.010536094999991974, 0.6493063452353878
4398, 0.01031729700000028, 0.6400636653024102
4401, 0.010239882999997008, 0.6409906839354692
4402, 0.010423171000013554, 0.6515220354384371
4416, 0.010730295999991313, 0.6648550724637681
4419, 0.01021912100000577, 0.6322697442860375
4420, 0.010670207999993409, 0.6515837104072398
4426, 0.010416444999975738, 0.6457297785811116
4428, 0.010636367999978802, 0.6447606142728094
4430, 0.010416861999999583, 0.6379232505643341
4430, 0.010437749000004715, 0.6422121896162528
4430, 0.010449797999996235, 0.6428893905191874
4436, 0.010658317000007855, 0.654643823264202
4438, 0.010149627999993527, 0.6356466876971609
4442, 0.010563429999990603, 0.6546600630346691
4446, 0.010478405000014845, 0.6417004048582996
4446, 0.011102810000011232, 0.636302294197031
4449, 0.010367385999984435, 0.6372218476062036
4456, 0.010433516999995618, 0.6386894075403949
4463, 0.010492246000012528, 0.638583912166704
4465, 0.010368042000010291, 0.6326987681970885
4467, 0.01015055499999562, 0.6254757107678531
4468, 0.01130047399999512, 0.6965085049239033
4469, 0.011055545999994365, 0.6699485343477288
4471, 0.010433618000007527, 0.6343099977633639
4476, 0.010467113999993671, 0.6423145665773011
4480, 0.010418600999997807, 0.6377232142857143
4485, 0.010751069999997753, 0.6512820512820513
4490, 0.010443324000021903, 0.6456570155902005
4490, 0.011268419999993284, 0.6801781737193764
4494, 0.010640612999992527, 0.6510903426791277
4506, 0.0103475140000171, 0.6249445184198846
4509, 0.01066034299998364, 0.6371701042359725
4514, 0.010820604999992156, 0.6510855117412494
4531, 0.011469032999997353, 0.6813065548444052
4532, 0.010546337000022277, 0.6438658428949691
4535, 0.010772862999999688, 0.6434399117971334
4539, 0.011083475000020826, 0.6448556950870236
4540, 0.010447349000003214, 0.621806167400881
4541, 0.010488709000014751, 0.6388460691477648
4544, 0.01093599100002507, 0.6606514084507042
4547, 0.011140624000006483, 0.6661535078073455
4548, 0.010725108000002592, 0.6402814423922604
4560, 0.010839024000006248, 0.6537280701754385
4561, 0.010906938000005084, 0.6454724841043631
4565, 0.010687362000027179, 0.644249726177437
4565, 0.01078539900001374, 0.656078860898138
4567, 0.011175369000000046, 0.6553536238230786
4569, 0.010609443999982204, 0.6482818997592471
4571, 0.010424772000021676, 0.631152920586305
4575, 0.010335673000014367, 0.6262295081967213
4581, 0.010619582000003902, 0.6428727352106527
4583, 0.010552697000008493, 0.6351734671612481
4584, 0.01033641699999066, 0.6191099476439791
4605, 0.010682970000004843, 0.6306188925081433
4605, 0.010789517000006299, 0.6286644951140065
4609, 0.01053635200000258, 0.6285528314167932
4609, 0.010882842000000892, 0.6495986114124539
4611, 0.010571781000010105, 0.6326176534374323
4615, 0.011238345999998955, 0.6593716143011917
4626, 0.010902232999995931, 0.6413748378728924
4634, 0.010762478000003739, 0.6309883470004316
4637, 0.01122230000001423, 0.6465387103730861
4646, 0.010857114000003776, 0.6360309944037882
4647, 0.010832241000002796, 0.6468689477081988
4650, 0.010305772999998908, 0.6221505376344086
4659, 0.010706025000018826, 0.6325391714960292
4660, 0.01135366200000476, 0.6675965665236051
4660, 0.011437018000009402, 0.6504291845493563
4664, 0.010931104000007963, 0.6438679245283019
4666, 0.011387689000002865, 0.6633090441491641
4670, 0.010986209999998664, 0.6533190578158459
4691, 0.011475257999990163, 0.6683010019185674
4692, 0.011036611999998058, 0.6172208013640239
4692, 0.011140294000000495, 0.6564364876385337
4695, 0.01121805000002496, 0.6396166134185304
4699, 0.010593200000016623, 0.6203447542030219
4709, 0.011010139999996227, 0.6428116372902952
4716, 0.01114490399999113, 0.6484308736217134
4722, 0.011016278999989026, 0.6387124099957645
4724, 0.011079888999972809, 0.6399237933954276
4726, 0.011349108999979762, 0.6483283961066441
4728, 0.011064621000002717, 0.6501692047377327
4733, 0.01129093699998407, 0.6526515951827594
4736, 0.011308217999982162, 0.6505489864864865
4738, 0.010816459000011491, 0.6333896158716759
4738, 0.011264745000005405, 0.6386661038412832
4742, 0.011177092999986371, 0.650147617039224
4747, 0.011366240000000971, 0.6484095218032442
4754, 0.010975928000021895, 0.6295750946571308
4759, 0.011058522000013227, 0.6274427400714436
4759, 0.011182573000013463, 0.6396301744063879
4762, 0.011679544999992686, 0.6587568248635027
4763, 0.011090620000004492, 0.6344740709636784
4767, 0.011067894999996497, 0.6337319068596602
4772, 0.011262990000005857, 0.6485750209555742
4776, 0.01108571099999267, 0.6335845896147404
4784, 0.011297474000002694, 0.6413043478260869
4795, 0.01091688299999305, 0.6331595411887383
4805, 0.011432905999981813, 0.6574401664932362
4809, 0.011245040000005702, 0.6431690580162196
4812, 0.011212015000012343, 0.6319617622610141
4814, 0.011003404999996746, 0.629206481096801
4827, 0.011203642000026548, 0.6399419929562875
4829, 0.011102750999981481, 0.6311865810726859
4833, 0.011371816999997009, 0.6348024001655287
4837, 0.010856512999993129, 0.6214595823857763
4842, 0.011335247999994635, 0.6493184634448576
4842, 0.011404066000011426, 0.6290788930194134
4857, 0.010959804999998823, 0.623018324068355
4864, 0.011064597999990156, 0.6342516447368421
4877, 0.011154254000018682, 0.6378921468115645
4884, 0.01143235899999695, 0.6437346437346437
4892, 0.011143709999998919, 0.6228536385936222
4895, 0.011186605000006011, 0.6292134831460674
4907, 0.011578083999978617, 0.6494803342164255
4909, 0.011305991000000404, 0.63047463841923
4911, 0.011353639000020621, 0.6403991040521279
4914, 0.011567608999996537, 0.6446886446886447
4915, 0.011150235999991764, 0.6229908443540183
4920, 0.012021738000015603, 0.6306910569105691
4925, 0.011126597000014726, 0.6257868020304569
4944, 0.01152609199999688, 0.6397653721682848
4956, 0.011532509000005575, 0.635593220338983
4959, 0.011972652999986622, 0.6571889493849566
4962, 0.01166732699999784, 0.6404675534058847
4963, 0.011562981999986732, 0.6498085835180335
4965, 0.011464837000005446, 0.6294058408862034
4973, 0.01187187300001824, 0.6495073396340237
4981, 0.011114848000005395, 0.6231680385464766
4984, 0.012439018999998552, 0.6384430176565008
4987, 0.011324467000008553, 0.6308401844796471
4988, 0.011834703999994645, 0.6497594226142742
4992, 0.011498256999999512, 0.6340144230769231
4998, 0.011421007999985022, 0.6318527410964386
5006, 0.011420179999987567, 0.6356372353176188
5009, 0.012001952999980858, 0.6376522259932123
5020, 0.011479162000000542, 0.6340637450199204
5023, 0.011868622999998024, 0.6456301015329484
5028, 0.011450186999979906, 0.6250994431185362
5034, 0.011534277000009752, 0.6311084624553039
5040, 0.012551428999984182, 0.6365079365079365
5046, 0.011524110999999948, 0.635354736424891
5054, 0.011768167000013818, 0.6337554412346657
5056, 0.011568146000001889, 0.6204509493670886
5064, 0.011705940000013015, 0.6307266982622433
5071, 0.012061633000001848, 0.6521396174324591
5076, 0.011561740999979975, 0.6250985027580772
5077, 0.01168569400002184, 0.643490250147725
5079, 0.011570347999992237, 0.6284701712935618
5086, 0.011771141999986412, 0.6447109712937475
5087, 0.011610460999975203, 0.6353449970513072
5090, 0.012470394999979817, 0.6540275049115913
5094, 0.011543759000005593, 0.6293678837848449
5103, 0.011430722999989484, 0.6213991769547325
5123, 0.011836407000004101, 0.6306851454226039
5123, 0.012170819999994364, 0.648838571149717
5127, 0.011672611000022926, 0.6385800663155842
5128, 0.012036485000010089, 0.6503510140405616
5130, 0.012432395999979917, 0.6559454191033138
5136, 0.011991859000005434, 0.6481697819314641
5138, 0.011441807000011295, 0.6136629038536395
5151, 0.011955875000012384, 0.6416229858279946
5153, 0.012065393999989737, 0.6450611294391616
5160, 0.012579799999997476, 0.6432170542635659
5171, 0.012273211000007223, 0.6468768129955521
5182, 0.012131041000003506, 0.6428020069471246
5183, 0.011481145999994169, 0.6210688790275902
5190, 0.011623770999989347, 0.6177263969171484
5204, 0.011907701000012594, 0.6373943120676403
5205, 0.011932588000007627, 0.6245917387127762
5207, 0.012242737999997644, 0.6366429806030344
5214, 0.011783819999976686, 0.6267740698120445
5221, 0.012187490000002299, 0.6217199770158973
5223, 0.0120756169999936, 0.6369902354968409
5229, 0.012039308999987952, 0.6291834002677377
5242, 0.01229586400000926, 0.6404044257916826
5250, 0.012155618999997841, 0.6299047619047619
5260, 0.012379183000007288, 0.6378326996197718
5262, 0.012235043000003998, 0.6393006461421513
5264, 0.012229324999992741, 0.6396276595744681
5290, 0.012193707000022869, 0.6325141776937618
5296, 0.012723902000004728, 0.6559667673716012
5298, 0.011938458000003038, 0.6291053227633069
5302, 0.01193002900001261, 0.6252357600905318
5312, 0.012045510000007198, 0.6285768072289156
5329, 0.011956235000013749, 0.6269468943516607
5341, 0.012544760999986693, 0.6575547650252762
5345, 0.012115072000000282, 0.6256314312441534
5348, 0.012481140999994977, 0.6409872849663426
5353, 0.011907871000005343, 0.6125537082010087
5369, 0.012682640000008405, 0.6159433786552431
5371, 0.012229485999995404, 0.6360081921429901
5386, 0.012168309000003319, 0.6281099145933903
5387, 0.011988454999993792, 0.621310562465194
5393, 0.012305415000014364, 0.6272946412015575
5407, 0.012198952999995072, 0.6216016275198817
5419, 0.01245254199997703, 0.6384941871193948
5422, 0.012616256000001158, 0.6445960900036887
5429, 0.012347947999984399, 0.6279241112543746
5433, 0.012114171000007445, 0.6147616418185164
5442, 0.012011503999985962, 0.6133774347666299
5469, 0.012945775000019921, 0.647101846772719
5471, 0.01240598199998999, 0.6229208554194846
5489, 0.013226885999984006, 0.6330843505192203
5494, 0.012681849000017564, 0.6325081907535494
5503, 0.012576529000000392, 0.6329274940941305
5518, 0.012510498000011694, 0.6246828561072852
5520, 0.01266972500002339, 0.6327898550724638
5523, 0.012404825000004394, 0.6262900597501357
5525, 0.01249202100001412, 0.6323981900452489
5589, 0.012351436999978205, 0.6129898013955984
5592, 0.012810311999999158, 0.628934191702432
5593, 0.012774908000011465, 0.6341855891292687
5605, 0.012513129000012668, 0.6165923282783229
5607, 0.012862758000011354, 0.6393793472445158
5668, 0.012895346000021846, 0.6242060691601976
5669, 0.013109485000001087, 0.6348562356676662
5680, 0.012594813000021077, 0.6100352112676056
5713, 0.012888219999979356, 0.6210397339401366
5724, 0.01287100499999383, 0.6219426974143956
5730, 0.012386697000010827, 0.6080279232111693
5731, 0.01280171300001598, 0.622055487698482
5731, 0.013205750999986776, 0.6468330134357005
5736, 0.012846977999998899, 0.6211645746164575
5753, 0.012674726999989616, 0.622979315139927
5764, 0.013155804000007265, 0.6295975017349064
5768, 0.01299715799999035, 0.6243065187239945
5780, 0.012672459000015124, 0.6173010380622838
5780, 0.01287401900000873, 0.6169550173010381
5807, 0.01318012999999496, 0.6235577750990184
5843, 0.01307819100000529, 0.623994523361287
5843, 0.013163909999974521, 0.6330652062296765
5846, 0.01386791199999493, 0.6486486486486487
5850, 0.012845312999985481, 0.6111111111111112
5850, 0.013406306999996787, 0.629059829059829
5857, 0.013168565000000854, 0.6315519890729042
5861, 0.01291712200000461, 0.6109878860262754
5876, 0.0129998799999953, 0.6135125936010892
5881, 0.013586594999992485, 0.6305050161537153
5886, 0.013401614999992262, 0.6235134216785593
5911, 0.01322634600001038, 0.6178311622398918
5941, 0.013868150999996942, 0.6278404309038882
5952, 0.013321240000010448, 0.6285282258064516
5962, 0.01347133600000916, 0.6273062730627307
5970, 0.013199382999999898, 0.6222780569514238
5980, 0.013372540999995408, 0.6265886287625418
5984, 0.013590854999989688, 0.6385360962566845
5987, 0.013395070000001397, 0.618005678971104
6006, 0.013161390999982814, 0.6075591075591076
6028, 0.013213390999993635, 0.6088254810882548
6051, 0.013653609999977334, 0.6253511816228723
6054, 0.013694658999980902, 0.6149653121902874
6057, 0.013582925999997997, 0.6207693577678719
6057, 0.013959655000007842, 0.6402509493148423
6065, 0.013402108999997608, 0.6100577081615829
6072, 0.013605749000021206, 0.6179183135704874
6074, 0.013077183000007153, 0.6037207770826474
6077, 0.01377004300002227, 0.6333717294717789
6093, 0.013488848000008602, 0.6167733464631544
6099, 0.013933006000002024, 0.6084604033448107
6109, 0.0137813949999952, 0.6176133573416271
6111, 0.014131278000007796, 0.6306660121093111
6118, 0.013913548000004994, 0.6082052958483164
6120, 0.0134521129999996, 0.6132352941176471
6123, 0.014184383000014122, 0.6405356851216724
6126, 0.013576328999988618, 0.6163891609533138
6133, 0.013974719000003688, 0.6355780205445948
6146, 0.013658662000011645, 0.6168239505369346
6151, 0.013722026000010601, 0.6151845228418144
6169, 0.0146357069999965, 0.6365699465067272
6176, 0.013845868000004202, 0.6282383419689119
6177, 0.014139889000006178, 0.629917435648373
6199, 0.013828682999985631, 0.6262300371027585
6199, 0.014015080999996599, 0.6330053234392644
6200, 0.013838831000015261, 0.6269354838709678
6201, 0.013922506000000112, 0.6231253023705854
6212, 0.01374054400000091, 0.6099484867997425
6214, 0.013657365000000254, 0.6219826198905697
6215, 0.013936191999988523, 0.6218825422365245
6218, 0.0136921829999892, 0.62190414924413
6221, 0.013901848999978483, 0.6306060118951937
6222, 0.014294258999996146, 0.6123432979749277
6237, 0.013993749999997362, 0.6230559563892897
6241, 0.014240397000008898, 0.6258612401858676
6242, 0.01368197900001178, 0.6150272348606216
6243, 0.014138766000002079, 0.6336697100752843
6253, 0.013713021000000936, 0.6190628498320806
6254, 0.014228241000012076, 0.620243044451551
6261, 0.014351449000002958, 0.638556141191503
6272, 0.01389163499999313, 0.6226084183673469
6282, 0.014189652999988311, 0.6244826488379497
6295, 0.014251846000007617, 0.6290706910246228
6302, 0.01419159499999978, 0.6317042208822596
6305, 0.014492238000002544, 0.6429817605075338
6313, 0.014521367000014607, 0.641533343893553
6314, 0.014422096000004103, 0.6320874247703516
6318, 0.014019465999979275, 0.6234567901234568
6323, 0.013981414999989283, 0.6180610469713743
6325, 0.014673512000001665, 0.6238735177865613
6354, 0.014263073000023496, 0.618665407617249
6370, 0.014060874999984208, 0.6180533751962324
6372, 0.013912715999992997, 0.6162900188323918
6414, 0.014563046999995777, 0.6300280636108513
6449, 0.014294906999992918, 0.6214917041401767
6506, 0.014322595999999521, 0.6126652320934522
6507, 0.01435770300000172, 0.6211771937913017
6525, 0.01466886200000772, 0.6248275862068966
6534, 0.0146243380000044, 0.628099173553719
6571, 0.015677056000015455, 0.633236950235885
6578, 0.014552425000005087, 0.6129522651261782
6591, 0.01513193299999216, 0.6348050371719011
6598, 0.014806065000016133, 0.622158229766596
6605, 0.014703752000002623, 0.6286146858440576
6614, 0.014762931000007029, 0.6206531599637133
6676, 0.014891341000009106, 0.6132414619532655
6678, 0.015373239000012973, 0.6191973644803833
6683, 0.014847505000005867, 0.6190333682477929
6704, 0.014536560999999892, 0.6035202863961814
6704, 0.014997004999997898, 0.6264916467780429
6710, 0.0147211829999776, 0.6154992548435171
6719, 0.015034890999999106, 0.6258371781515106
6727, 0.01579251599997633, 0.6325256429314702
6751, 0.014627105000016627, 0.6169456376833061
6751, 0.01478049800002168, 0.6108724633387647
6774, 0.01513884399997778, 0.619722468260998
6779, 0.01504575600000635, 0.6287062988641392
6780, 0.015290348000007725, 0.6315634218289086
6785, 0.015109259000013253, 0.6169491525423729
6790, 0.015387618999994856, 0.6170839469808542
6796, 0.015131883000009339, 0.6241907004120071
6824, 0.015166331000017408, 0.6219226260257913
6829, 0.01577916200000118, 0.6453360667740519
6849, 0.015210526000004165, 0.6209665644619653
6870, 0.01520582400002013, 0.6251819505094615
6895, 0.015517680000016298, 0.6216098622189993
6910, 0.015648041999980933, 0.6263386396526773
6919, 0.015099953000003552, 0.6076022546610782
6920, 0.01527668800000015, 0.6095375722543352
6926, 0.015596978999980138, 0.6172393878140341
6945, 0.015053143000017144, 0.6165586753059755
6955, 0.015114116999995986, 0.6027318475916607
6985, 0.015341329999984055, 0.6167501789549034
6989, 0.01547639999998296, 0.6219773930462155
7000, 0.015218586999992567, 0.6107142857142858
7024, 0.015353570999991462, 0.6109054669703873
7088, 0.015600804999991169, 0.6207674943566591
7088, 0.015711074999984476, 0.6202031602708804
7103, 0.015803075000007993, 0.6233985639870477
7122, 0.01607172299998183, 0.6345127773097444
7123, 0.015563993000000664, 0.6135055454162572
7128, 0.016114549000008083, 0.6195286195286195
7156, 0.015877417999973886, 0.6264673001676915
7214, 0.01585573899998849, 0.6203215968949265
7232, 0.015708525000007967, 0.6171183628318584
7249, 0.016029471000024387, 0.6236722306525038
7261, 0.016192227999994202, 0.6260845613551852
7331, 0.01616606900000761, 0.6209248397217296
7339, 0.01621022200001221, 0.6146613980106281
7360, 0.01626762000000781, 0.615625
7366, 0.01618035999999279, 0.6062992125984252
7367, 0.01625872100001402, 0.6229129903624271
7370, 0.01627598800001806, 0.6211668928086839
7371, 0.016291264000017236, 0.6273232939899607
7374, 0.016393019999981107, 0.6196094385679414
7381, 0.01571997099998157, 0.6073702750304837
7392, 0.016191123999988122, 0.6099837662337663
7392, 0.016599694000007048, 0.6208062770562771
7406, 0.01589605500001312, 0.5996489332973265
7414, 0.016372544000006428, 0.6205826814135419
7454, 0.01614107000000331, 0.610410517842769
7457, 0.016454729999992423, 0.6206249161861338
7480, 0.016194173000002365, 0.6137700534759358
7492, 0.016413924999994833, 0.6185264281900694
7493, 0.016269143999977587, 0.6151074336046978
7529, 0.016432038999994347, 0.6178775401779785
7536, 0.016192727000003515, 0.6024416135881104
7539, 0.0164704529999824, 0.6137418755803157
7559, 0.01629998600000704, 0.6002116682100807
7608, 0.01674795299999232, 0.6211882229232387
7639, 0.016371896000009656, 0.602042152114151
7648, 0.016744952999999896, 0.609571129707113
7672, 0.016564513000020042, 0.6075338894681961
7714, 0.016955473999985315, 0.6200414830178895
7736, 0.016693987999985893, 0.6026370217166495
7749, 0.016417980999989368, 0.6058846302748742
7751, 0.016644571000000496, 0.5981163720810218
7790, 0.016736413000018047, 0.606803594351733
7829, 0.017229577999984258, 0.6206412057734065
7831, 0.016766564999983302, 0.6033712169582429
7837, 0.016899152999997114, 0.606226872527753
7892, 0.017506945000008045, 0.6177141409021795
7921, 0.017720012000012275, 0.6234061355889408
7926, 0.0171865519999983, 0.6150643451930355
7927, 0.01735570600001779, 0.613851393969976
7978, 0.017552856000008887, 0.6215843569816997
8019, 0.017616414999992003, 0.6247661803217359
8039, 0.018599305999998705, 0.6294315213334992
8073, 0.01773619100001156, 0.6134027003592221
8087, 0.01766331600001081, 0.6166687275874861
8144, 0.01750679699998159, 0.6065815324165029
8149, 0.017657827999983056, 0.6124677874585839
8184, 0.01765832500001352, 0.6098484848484849
8194, 0.017807204999996884, 0.6165486941664633
8318, 0.01786267699998234, 0.6085597499398894
8325, 0.018200046999993447, 0.603963963963964
8328, 0.018104133999997885, 0.6080691642651297
8350, 0.018498726999979453, 0.6021556886227545
8368, 0.017739885999986882, 0.6000239005736138
8399, 0.01893377800001872, 0.6190022621740684
8478, 0.018329126000026008, 0.6012031139419675
8588, 0.019069612000009784, 0.6177224033535166
8769, 0.018708703000015703, 0.6028053369825521
8828, 0.019185062999980573, 0.614182147711826
8870, 0.01940935299998614, 0.6089064261555807
8892, 0.01899597799999242, 0.603463787674314
9275, 0.019575139000011177, 0.594177897574124
9523, 0.020349019000008184, 0.5997059750078757
9641, 0.02075995399999897, 0.6077170418006431
9722, 0.020531301000005442, 0.5958650483439621
9765, 0.021272562000007156, 0.6098310291858678
9927, 0.020794709000000466, 0.5957489674624761
