Taille du fichier (octets), Vitesse (secondes), Taux de compression 
232617, 0.7347178489999919, 1.0016163908914655
403101, 1.089972830999983, 0.9899975440398312
541194, 1.4764363440000068, 1.0002845560002513
575460, 1.560173404000011, 1.0003371216070622
1037696, 2.8426171880000197, 0.9948376017639078
1705769, 5.368235894999998, 1.0001160766786124
2370528, 6.361844573999974, 0.9890906160990294
2661915, 7.284437975999992, 0.9987956039167292
2936175, 8.937720748999993, 0.9984180098257086
5001259, 13.441388272000012, 0.9997880533681619
6186162, 16.746484940000016, 0.9957267527103235
6850782, 19.01714960700002, 0.9997692234258805
7544861, 20.292256082999984, 0.9998955580493796
7623124, 21.419821971000005, 0.9976416492765958
8127295, 22.213490191999995, 0.9943045010670832
8521162, 21.607156013999997, 0.9311539905003566
8777327, 23.944945676999993, 0.9989070704555043
9237686, 24.728861572000028, 0.9994358976912616
10008897, 27.170194709999976, 0.9997461258718119
