%!PS-Adobe-3.0 EPSF-3.0
%%Creator: graphviz version 2.43.0 (0)
%%Title: %3
%%Pages: 1
%%BoundingBox: 36 36 472 368
%%EndComments
save
%%BeginProlog
/DotDict 200 dict def
DotDict begin

/setupLatin1 {
mark
/EncodingVector 256 array def
 EncodingVector 0

ISOLatin1Encoding 0 255 getinterval putinterval
EncodingVector 45 /hyphen put

% Set up ISO Latin 1 character encoding
/starnetISO {
        dup dup findfont dup length dict begin
        { 1 index /FID ne { def }{ pop pop } ifelse
        } forall
        /Encoding EncodingVector def
        currentdict end definefont
} def
/Times-Roman starnetISO def
/Times-Italic starnetISO def
/Times-Bold starnetISO def
/Times-BoldItalic starnetISO def
/Helvetica starnetISO def
/Helvetica-Oblique starnetISO def
/Helvetica-Bold starnetISO def
/Helvetica-BoldOblique starnetISO def
/Courier starnetISO def
/Courier-Oblique starnetISO def
/Courier-Bold starnetISO def
/Courier-BoldOblique starnetISO def
cleartomark
} bind def

%%BeginResource: procset graphviz 0 0
/coord-font-family /Times-Roman def
/default-font-family /Times-Roman def
/coordfont coord-font-family findfont 8 scalefont def

/InvScaleFactor 1.0 def
/set_scale {
       dup 1 exch div /InvScaleFactor exch def
       scale
} bind def

% styles
/solid { [] 0 setdash } bind def
/dashed { [9 InvScaleFactor mul dup ] 0 setdash } bind def
/dotted { [1 InvScaleFactor mul 6 InvScaleFactor mul] 0 setdash } bind def
/invis {/fill {newpath} def /stroke {newpath} def /show {pop newpath} def} bind def
/bold { 2 setlinewidth } bind def
/filled { } bind def
/unfilled { } bind def
/rounded { } bind def
/diagonals { } bind def
/tapered { } bind def

% hooks for setting color 
/nodecolor { sethsbcolor } bind def
/edgecolor { sethsbcolor } bind def
/graphcolor { sethsbcolor } bind def
/nopcolor {pop pop pop} bind def

/beginpage {	% i j npages
	/npages exch def
	/j exch def
	/i exch def
	/str 10 string def
	npages 1 gt {
		gsave
			coordfont setfont
			0 0 moveto
			(\() show i str cvs show (,) show j str cvs show (\)) show
		grestore
	} if
} bind def

/set_font {
	findfont exch
	scalefont setfont
} def

% draw text fitted to its expected width
/alignedtext {			% width text
	/text exch def
	/width exch def
	gsave
		width 0 gt {
			[] 0 setdash
			text stringwidth pop width exch sub text length div 0 text ashow
		} if
	grestore
} def

/boxprim {				% xcorner ycorner xsize ysize
		4 2 roll
		moveto
		2 copy
		exch 0 rlineto
		0 exch rlineto
		pop neg 0 rlineto
		closepath
} bind def

/ellipse_path {
	/ry exch def
	/rx exch def
	/y exch def
	/x exch def
	matrix currentmatrix
	newpath
	x y translate
	rx ry scale
	0 0 1 0 360 arc
	setmatrix
} bind def

/endpage { showpage } bind def
/showpage { } def

/layercolorseq
	[	% layer color sequence - darkest to lightest
		[0 0 0]
		[.2 .8 .8]
		[.4 .8 .8]
		[.6 .8 .8]
		[.8 .8 .8]
	]
def

/layerlen layercolorseq length def

/setlayer {/maxlayer exch def /curlayer exch def
	layercolorseq curlayer 1 sub layerlen mod get
	aload pop sethsbcolor
	/nodecolor {nopcolor} def
	/edgecolor {nopcolor} def
	/graphcolor {nopcolor} def
} bind def

/onlayer { curlayer ne {invis} if } def

/onlayers {
	/myupper exch def
	/mylower exch def
	curlayer mylower lt
	curlayer myupper gt
	or
	{invis} if
} def

/curlayer 0 def

%%EndResource
%%EndProlog
%%BeginSetup
14 default-font-family set_font
% /arrowlength 10 def
% /arrowwidth 5 def

% make sure pdfmark is harmless for PS-interpreters other than Distiller
/pdfmark where {pop} {userdict /pdfmark /cleartomark load put} ifelse
% make '<<' and '>>' safe on PS Level 1 devices
/languagelevel where {pop languagelevel}{1} ifelse
2 lt {
    userdict (<<) cvn ([) cvn load put
    userdict (>>) cvn ([) cvn load put
} if

%%EndSetup
setupLatin1
%%Page: 1 1
%%PageBoundingBox: 36 36 472 368
%%PageOrientation: Portrait
0 0 1 beginpage
gsave
36 36 436 332 boxprim clip newpath
1 1 set_scale 0 rotate 40 40 translate
% noeud0
gsave
1 setlinewidth
0 0 0 nodecolor
137 306 27 18 ellipse_path stroke
0 0 0 nodecolor
14 /Times-Roman set_font
133.5 302.3 moveto 7 (0) alignedtext
grestore
% noeud00
gsave
1 setlinewidth
0 0 0 nodecolor
100 234 27 18 ellipse_path stroke
0 0 0 nodecolor
14 /Times-Roman set_font
93 230.3 moveto 14 (00) alignedtext
grestore
% noeud0->noeud00
gsave
1 setlinewidth
0 0 0 edgecolor
newpath 128.4185 288.7646 moveto
123.9354 280.2831 118.349 269.7144 113.3186 260.1974 curveto
stroke
0 0 0 edgecolor
newpath 116.3025 258.3527 moveto
108.535 251.1473 lineto
110.1138 261.6239 lineto
closepath fill
1 setlinewidth
solid
0 0 0 edgecolor
newpath 116.3025 258.3527 moveto
108.535 251.1473 lineto
110.1138 261.6239 lineto
closepath stroke
grestore
% noeud01
gsave
1 setlinewidth
0 0 0 nodecolor
211 234 27 18 ellipse_path stroke
0 0 0 nodecolor
14 /Times-Roman set_font
204 230.3 moveto 14 (01) alignedtext
grestore
% noeud0->noeud01
gsave
1 setlinewidth
0 0 0 edgecolor
newpath 151.975 290.8345 moveto
162.5067 280.872 176.7817 267.3687 188.655 256.1371 curveto
stroke
0 0 0 edgecolor
newpath 191.1878 258.5592 moveto
196.0473 249.1445 lineto
186.3773 253.4739 lineto
closepath fill
1 setlinewidth
solid
0 0 0 edgecolor
newpath 191.1878 258.5592 moveto
196.0473 249.1445 lineto
186.3773 253.4739 lineto
closepath stroke
grestore
% noeud000
gsave
1 setlinewidth
0 0 0 nodecolor
28 162 27 18 ellipse_path stroke
0 0 0 nodecolor
14 /Times-Roman set_font
17.5 158.3 moveto 21 (000) alignedtext
grestore
% noeud00->noeud000
gsave
1 setlinewidth
0 0 0 edgecolor
newpath 85.4297 218.8345 moveto
75.2501 208.9376 61.4761 195.5462 49.9694 184.3591 curveto
stroke
0 0 0 edgecolor
newpath 52.4055 181.8461 moveto
42.7957 177.3847 lineto
47.5259 186.865 lineto
closepath fill
1 setlinewidth
solid
0 0 0 edgecolor
newpath 52.4055 181.8461 moveto
42.7957 177.3847 lineto
47.5259 186.865 lineto
closepath stroke
grestore
% noeud001
gsave
1 setlinewidth
0 0 0 nodecolor
100 162 27 18 ellipse_path stroke
0 0 0 nodecolor
14 /Times-Roman set_font
89.5 158.3 moveto 21 (001) alignedtext
grestore
% noeud00->noeud001
gsave
1 setlinewidth
0 0 0 edgecolor
newpath 100 215.6966 moveto
100 207.9827 100 198.7125 100 190.1124 curveto
stroke
0 0 0 edgecolor
newpath 103.5001 190.1043 moveto
100 180.1043 lineto
96.5001 190.1044 lineto
closepath fill
1 setlinewidth
solid
0 0 0 edgecolor
newpath 103.5001 190.1043 moveto
100 180.1043 lineto
96.5001 190.1044 lineto
closepath stroke
grestore
% feuille000
gsave
1 setlinewidth
0 0 0 nodecolor
newpath 42 108 moveto
42 108 12 108 12 108 curveto
6 108 0 102 0 96 curveto
0 96 0 84 0 84 curveto
0 78 6 72 12 72 curveto
12 72 42 72 42 72 curveto
48 72 54 78 54 84 curveto
54 84 54 96 54 96 curveto
54 102 48 108 42 108 curveto
stroke
0 0 0 nodecolor
14 /Times-Roman set_font
11 86.3 moveto 32 (72 : 1) alignedtext
grestore
% noeud000->feuille000
gsave
1 setlinewidth
0 0 0 edgecolor
newpath 27.7528 143.6966 moveto
27.6426 135.9827 27.5102 126.7125 27.3873 118.1124 curveto
stroke
0 0 0 edgecolor
newpath 30.8869 118.0533 moveto
27.2443 108.1043 lineto
23.8876 118.1533 lineto
closepath fill
1 setlinewidth
solid
0 0 0 edgecolor
newpath 30.8869 118.0533 moveto
27.2443 108.1043 lineto
23.8876 118.1533 lineto
closepath stroke
grestore
% feuille001
gsave
1 setlinewidth
0 0 0 nodecolor
newpath 115.5 108 moveto
115.5 108 84.5 108 84.5 108 curveto
78.5 108 72.5 102 72.5 96 curveto
72.5 96 72.5 84 72.5 84 curveto
72.5 78 78.5 72 84.5 72 curveto
84.5 72 115.5 72 115.5 72 curveto
121.5 72 127.5 78 127.5 84 curveto
127.5 84 127.5 96 127.5 96 curveto
127.5 102 121.5 108 115.5 108 curveto
stroke
0 0 0 nodecolor
14 /Times-Roman set_font
80.5 86.3 moveto 39 (102 : 2) alignedtext
grestore
% noeud001->feuille001
gsave
1 setlinewidth
0 0 0 edgecolor
newpath 100 143.6966 moveto
100 135.9827 100 126.7125 100 118.1124 curveto
stroke
0 0 0 edgecolor
newpath 103.5001 118.1043 moveto
100 108.1043 lineto
96.5001 118.1044 lineto
closepath fill
1 setlinewidth
solid
0 0 0 edgecolor
newpath 103.5001 118.1043 moveto
100 108.1043 lineto
96.5001 118.1044 lineto
closepath stroke
grestore
% noeud010
gsave
1 setlinewidth
0 0 0 nodecolor
211 162 27 18 ellipse_path stroke
0 0 0 nodecolor
14 /Times-Roman set_font
200.5 158.3 moveto 21 (010) alignedtext
grestore
% noeud01->noeud010
gsave
1 setlinewidth
0 0 0 edgecolor
newpath 211 215.6966 moveto
211 207.9827 211 198.7125 211 190.1124 curveto
stroke
0 0 0 edgecolor
newpath 214.5001 190.1043 moveto
211 180.1043 lineto
207.5001 190.1044 lineto
closepath fill
1 setlinewidth
solid
0 0 0 edgecolor
newpath 214.5001 190.1043 moveto
211 180.1043 lineto
207.5001 190.1044 lineto
closepath stroke
grestore
% noeud011
gsave
1 setlinewidth
0 0 0 nodecolor
324 162 27 18 ellipse_path stroke
0 0 0 nodecolor
14 /Times-Roman set_font
313.5 158.3 moveto 21 (011) alignedtext
grestore
% noeud01->noeud011
gsave
1 setlinewidth
0 0 0 edgecolor
newpath 230.1689 221.1255 moveto
248.2696 209.9126 275.6229 192.9681 296.1333 180.2626 curveto
stroke
0 0 0 edgecolor
newpath 298.0792 183.1744 moveto
304.7371 174.9328 lineto
294.3928 177.2236 lineto
closepath fill
1 setlinewidth
solid
0 0 0 edgecolor
newpath 298.0792 183.1744 moveto
304.7371 174.9328 lineto
294.3928 177.2236 lineto
closepath stroke
grestore
% noeud0100
gsave
1 setlinewidth
0 0 0 nodecolor
174 90 28.6953 18 ellipse_path stroke
0 0 0 nodecolor
14 /Times-Roman set_font
160 86.3 moveto 28 (0100) alignedtext
grestore
% noeud010->noeud0100
gsave
1 setlinewidth
0 0 0 edgecolor
newpath 202.4185 144.7646 moveto
197.9994 136.4043 192.5084 126.0159 187.5346 116.6059 curveto
stroke
0 0 0 edgecolor
newpath 190.5594 114.8388 moveto
182.7919 107.6334 lineto
184.3707 118.11 lineto
closepath fill
1 setlinewidth
solid
0 0 0 edgecolor
newpath 190.5594 114.8388 moveto
182.7919 107.6334 lineto
184.3707 118.11 lineto
closepath stroke
grestore
% noeud0101
gsave
1 setlinewidth
0 0 0 nodecolor
249 90 28.6953 18 ellipse_path stroke
0 0 0 nodecolor
14 /Times-Roman set_font
235 86.3 moveto 28 (0101) alignedtext
grestore
% noeud010->noeud0101
gsave
1 setlinewidth
0 0 0 edgecolor
newpath 219.8135 144.7646 moveto
224.4177 136.2831 230.155 125.7144 235.3214 116.1974 curveto
stroke
0 0 0 edgecolor
newpath 238.5393 117.6057 moveto
240.2343 107.1473 lineto
232.3874 114.266 lineto
closepath fill
1 setlinewidth
solid
0 0 0 edgecolor
newpath 238.5393 117.6057 moveto
240.2343 107.1473 lineto
232.3874 114.266 lineto
closepath stroke
grestore
% feuille0100
gsave
1 setlinewidth
0 0 0 nodecolor
newpath 189.5 36 moveto
189.5 36 158.5 36 158.5 36 curveto
152.5 36 146.5 30 146.5 24 curveto
146.5 24 146.5 12 146.5 12 curveto
146.5 6 152.5 0 158.5 0 curveto
158.5 0 189.5 0 189.5 0 curveto
195.5 0 201.5 6 201.5 12 curveto
201.5 12 201.5 24 201.5 24 curveto
201.5 30 195.5 36 189.5 36 curveto
stroke
0 0 0 nodecolor
14 /Times-Roman set_font
154.5 14.3 moveto 39 (109 : 1) alignedtext
grestore
% noeud0100->feuille0100
gsave
1 setlinewidth
0 0 0 edgecolor
newpath 174 71.6966 moveto
174 63.9827 174 54.7125 174 46.1124 curveto
stroke
0 0 0 edgecolor
newpath 177.5001 46.1043 moveto
174 36.1043 lineto
170.5001 46.1044 lineto
closepath fill
1 setlinewidth
solid
0 0 0 edgecolor
newpath 177.5001 46.1043 moveto
174 36.1043 lineto
170.5001 46.1044 lineto
closepath stroke
grestore
% feuille0101
gsave
1 setlinewidth
0 0 0 nodecolor
newpath 264 36 moveto
264 36 234 36 234 36 curveto
228 36 222 30 222 24 curveto
222 24 222 12 222 12 curveto
222 6 228 0 234 0 curveto
234 0 264 0 264 0 curveto
270 0 276 6 276 12 curveto
276 12 276 24 276 24 curveto
276 30 270 36 264 36 curveto
stroke
0 0 0 nodecolor
14 /Times-Roman set_font
233 14.3 moveto 32 (97 : 1) alignedtext
grestore
% noeud0101->feuille0101
gsave
1 setlinewidth
0 0 0 edgecolor
newpath 249 71.6966 moveto
249 63.9827 249 54.7125 249 46.1124 curveto
stroke
0 0 0 edgecolor
newpath 252.5001 46.1043 moveto
249 36.1043 lineto
245.5001 46.1044 lineto
closepath fill
1 setlinewidth
solid
0 0 0 edgecolor
newpath 252.5001 46.1043 moveto
249 36.1043 lineto
245.5001 46.1044 lineto
closepath stroke
grestore
% noeud0110
gsave
1 setlinewidth
0 0 0 nodecolor
324 90 28.6953 18 ellipse_path stroke
0 0 0 nodecolor
14 /Times-Roman set_font
310 86.3 moveto 28 (0110) alignedtext
grestore
% noeud011->noeud0110
gsave
1 setlinewidth
0 0 0 edgecolor
newpath 324 143.6966 moveto
324 135.9827 324 126.7125 324 118.1124 curveto
stroke
0 0 0 edgecolor
newpath 327.5001 118.1043 moveto
324 108.1043 lineto
320.5001 118.1044 lineto
closepath fill
1 setlinewidth
solid
0 0 0 edgecolor
newpath 327.5001 118.1043 moveto
324 108.1043 lineto
320.5001 118.1044 lineto
closepath stroke
grestore
% noeud0111
gsave
1 setlinewidth
0 0 0 nodecolor
399 90 28.6953 18 ellipse_path stroke
0 0 0 nodecolor
14 /Times-Roman set_font
385 86.3 moveto 28 (0111) alignedtext
grestore
% noeud011->noeud0111
gsave
1 setlinewidth
0 0 0 edgecolor
newpath 339.1774 146.8345 moveto
349.7812 136.9376 364.129 123.5462 376.1153 112.3591 curveto
stroke
0 0 0 edgecolor
newpath 378.6653 114.7667 moveto
383.5878 105.3847 lineto
373.8891 109.6492 lineto
closepath fill
1 setlinewidth
solid
0 0 0 edgecolor
newpath 378.6653 114.7667 moveto
383.5878 105.3847 lineto
373.8891 109.6492 lineto
closepath stroke
grestore
% feuille0110
gsave
1 setlinewidth
0 0 0 nodecolor
newpath 339.5 36 moveto
339.5 36 308.5 36 308.5 36 curveto
302.5 36 296.5 30 296.5 24 curveto
296.5 24 296.5 12 296.5 12 curveto
296.5 6 302.5 0 308.5 0 curveto
308.5 0 339.5 0 339.5 0 curveto
345.5 0 351.5 6 351.5 12 curveto
351.5 12 351.5 24 351.5 24 curveto
351.5 30 345.5 36 339.5 36 curveto
stroke
0 0 0 nodecolor
14 /Times-Roman set_font
304.5 14.3 moveto 39 (117 : 1) alignedtext
grestore
% noeud0110->feuille0110
gsave
1 setlinewidth
0 0 0 edgecolor
newpath 324 71.6966 moveto
324 63.9827 324 54.7125 324 46.1124 curveto
stroke
0 0 0 edgecolor
newpath 327.5001 46.1043 moveto
324 36.1043 lineto
320.5001 46.1044 lineto
closepath fill
1 setlinewidth
solid
0 0 0 edgecolor
newpath 327.5001 46.1043 moveto
324 36.1043 lineto
320.5001 46.1044 lineto
closepath stroke
grestore
% feuille0111
gsave
1 setlinewidth
0 0 0 nodecolor
newpath 414.5 36 moveto
414.5 36 383.5 36 383.5 36 curveto
377.5 36 371.5 30 371.5 24 curveto
371.5 24 371.5 12 371.5 12 curveto
371.5 6 377.5 0 383.5 0 curveto
383.5 0 414.5 0 414.5 0 curveto
420.5 0 426.5 6 426.5 12 curveto
426.5 12 426.5 24 426.5 24 curveto
426.5 30 420.5 36 414.5 36 curveto
stroke
0 0 0 nodecolor
14 /Times-Roman set_font
379.5 14.3 moveto 39 (110 : 1) alignedtext
grestore
% noeud0111->feuille0111
gsave
1 setlinewidth
0 0 0 edgecolor
newpath 399 71.6966 moveto
399 63.9827 399 54.7125 399 46.1124 curveto
stroke
0 0 0 edgecolor
newpath 402.5001 46.1043 moveto
399 36.1043 lineto
395.5001 46.1044 lineto
closepath fill
1 setlinewidth
solid
0 0 0 edgecolor
newpath 402.5001 46.1043 moveto
399 36.1043 lineto
395.5001 46.1044 lineto
closepath stroke
grestore
endpage
showpage
grestore
%%PageTrailer
%%EndPage: 1
%%Trailer
end
restore
%%EOF
